2020-10-14 19:26:04.566: Dataset name: BookCrossing
The number of users: 19480
The number of items: 25775
The number of ratings: 95957
Average actions of users: 4.93
Average actions of items: 3.72
The sparsity of the dataset: 99.980889%
2020-10-14 19:26:04.567: 

NeuRec hyperparameters:
recommender=MF
config_dir=./conf
gpu_id=0
gpu_mem=0.5
data.input.path=dataset
data.input.dataset=BookCrossing
data.column.format=UIR
data.convert.separator='\t'
user_min=0
item_min=0
splitter=ratio
ratio=0.8
by_time=False
metric=["Precision", "Recall", "NDCG", "MAP", "MRR"]
topk=[10, 20, 30]
group_view=None
rec.evaluate.neg=100
test_batch_size=128
num_thread=8

MF's hyperparameters:
epochs=300
batch_size=512
embedding_size=64
reg_mf=0.0
learning_rate=0.001
learner=adam
num_negatives=1
is_pairwise=True
loss_function=bpr
init_method=normal
stddev=0.01
verbose=1

2020-10-14 19:26:04.958: metrics:	Precision@10	Precision@20	Precision@30	Recall@10   	Recall@20   	Recall@30   	NDCG@10     	NDCG@20     	NDCG@30     	MAP@10      	MAP@20      	MAP@30      	MRR@10      	MRR@20      	MRR@30      
2020-10-14 19:26:11.452: [iter 1 : loss : 354.353358, time: 5.840062]
2020-10-14 19:26:12.426: epoch 1:	0.03872468  	0.03558874  	0.03432673  	0.11356635  	0.21418858  	0.31681243  	0.07693401  	0.10681000  	0.13409646  	0.04198859  	0.04897064  	0.05472445  	0.10266172  	0.11269293  	0.11731490  
2020-10-14 19:26:18.255: [iter 2 : loss : 351.780752, time: 5.828575]
2020-10-14 19:26:19.119: epoch 2:	0.08012005  	0.05885254  	0.04924037  	0.24540021  	0.35975957  	0.45380422  	0.19508792  	0.22659424  	0.25125697  	0.13495587  	0.14216125  	0.14777051  	0.25005201  	0.25821978  	0.26181090  
2020-10-14 19:26:25.142: [iter 3 : loss : 339.078654, time: 6.021062]
2020-10-14 19:26:25.987: epoch 3:	0.11018804  	0.07545391  	0.06048164  	0.36041871  	0.46970865  	0.56588578  	0.29258838  	0.32276604  	0.34772182  	0.21843779  	0.22644442  	0.23287703  	0.34892887  	0.35521492  	0.35828504  
2020-10-14 19:26:32.077: [iter 4 : loss : 307.793168, time: 6.088140]
2020-10-14 19:26:33.140: epoch 4:	0.12172270  	0.08221889  	0.06432660  	0.41160756  	0.52878058  	0.61168623  	0.32918033  	0.36141306  	0.38323238  	0.24872713  	0.25757235  	0.26354453  	0.37965623  	0.38606438  	0.38857844  
2020-10-14 19:26:39.059: [iter 5 : loss : 265.015922, time: 5.915991]
2020-10-14 19:26:39.995: epoch 5:	0.12597366  	0.08513471  	0.06625342  	0.43368647  	0.55186880  	0.63297534  	0.34594494  	0.37900728  	0.40038919  	0.26315287  	0.27280933  	0.27866948  	0.39476454  	0.40122870  	0.40359971  
2020-10-14 19:26:45.206: [iter 6 : loss : 223.832564, time: 5.210589]
2020-10-14 19:26:45.950: epoch 6:	0.12838429  	0.08653440  	0.06712603  	0.44419047  	0.56701696  	0.64180988  	0.35404542  	0.38809267  	0.40823629  	0.27019346  	0.28021884  	0.28599146  	0.40050495  	0.40690669  	0.40905353  
2020-10-14 19:26:51.465: [iter 7 : loss : 189.204661, time: 5.513605]
2020-10-14 19:26:52.483: epoch 7:	0.12952480  	0.08764895  	0.06795549  	0.45009723  	0.57674199  	0.65300620  	0.35588658  	0.39103264  	0.41152552  	0.27055609  	0.28099659  	0.28688130  	0.40059650  	0.40706190  	0.40928876  
2020-10-14 19:26:58.714: [iter 8 : loss : 160.982874, time: 6.230387]
2020-10-14 19:26:59.642: epoch 8:	0.13050976  	0.08799884  	0.06828383  	0.45553729  	0.58055997  	0.65695357  	0.35988912  	0.39457679  	0.41516513  	0.27413869  	0.28440720  	0.29034579  	0.40490600  	0.41139203  	0.41367841  
2020-10-14 19:27:06.012: [iter 9 : loss : 137.991862, time: 6.368997]
2020-10-14 19:27:07.015: epoch 9:	0.13092448  	0.08819324  	0.06854298  	0.45860443  	0.57915086  	0.65741962  	0.36118418  	0.39509577  	0.41615143  	0.27483055  	0.28511536  	0.29119822  	0.40561396  	0.41191041  	0.41423586  
2020-10-14 19:27:13.345: [iter 10 : loss : 118.210914, time: 6.328457]
2020-10-14 19:27:14.418: epoch 10:	0.13120963  	0.08859494  	0.06889720  	0.45850480  	0.58386594  	0.66323793  	0.36295116  	0.39810503  	0.41937411  	0.27705351  	0.28767264  	0.29382786  	0.40831378  	0.41487107  	0.41721126  
2020-10-14 19:27:20.128: [iter 11 : loss : 102.202138, time: 5.709120]
2020-10-14 19:27:21.249: epoch 11:	0.13131331  	0.08865975  	0.06897497  	0.46049196  	0.58455276  	0.66400754  	0.36398363  	0.39888728  	0.42021677  	0.27762160  	0.28833896  	0.29452109  	0.40979528  	0.41625050  	0.41867369  
2020-10-14 19:27:27.621: [iter 12 : loss : 88.929218, time: 6.371066]
2020-10-14 19:27:28.678: epoch 12:	0.13175401  	0.08895782  	0.06909589  	0.46227905  	0.58687556  	0.66394210  	0.36672279  	0.40169853  	0.42253923  	0.28059503  	0.29130664  	0.29741502  	0.41312256  	0.41938320  	0.42168823  
2020-10-14 19:27:35.204: [iter 13 : loss : 77.770836, time: 6.525749]
2020-10-14 19:27:36.284: epoch 13:	0.13245387  	0.08928178  	0.06919096  	0.46478647  	0.58816326  	0.66550583  	0.36707199  	0.40172359  	0.42251256  	0.28023896  	0.29085156  	0.29697558  	0.41243386  	0.41863856  	0.42091697  
2020-10-14 19:27:42.540: [iter 14 : loss : 67.615175, time: 6.255829]
2020-10-14 19:27:43.639: epoch 14:	0.13229837  	0.08930768  	0.06944156  	0.46425372  	0.58750623  	0.66825336  	0.36716351  	0.40191975  	0.42347184  	0.28060988  	0.29136652  	0.29760456  	0.41296503  	0.41916820  	0.42165223  
2020-10-14 19:27:49.992: [iter 15 : loss : 59.591278, time: 6.352195]
2020-10-14 19:27:50.908: epoch 15:	0.13206506  	0.08913923  	0.06926875  	0.46323591  	0.58649439  	0.66770428  	0.36661655  	0.40126291  	0.42291024  	0.28031418  	0.29098243  	0.29716048  	0.41244480  	0.41885945  	0.42130205  
2020-10-14 19:27:57.379: [iter 16 : loss : 52.377140, time: 6.469478]
2020-10-14 19:27:58.309: epoch 16:	0.13157253  	0.08917808  	0.06927736  	0.46177450  	0.58721733  	0.66689700  	0.36538938  	0.40077311  	0.42208034  	0.27923563  	0.29028416  	0.29647616  	0.41062909  	0.41707009  	0.41936377  
2020-10-14 19:28:03.916: [iter 17 : loss : 45.986329, time: 5.605887]
2020-10-14 19:28:04.792: epoch 17:	0.13172807  	0.08912624  	0.06920826  	0.46152949  	0.58720088  	0.66540700  	0.36463737  	0.39989567  	0.42093962  	0.27837074  	0.28913736  	0.29530945  	0.40988678  	0.41636416  	0.41858301  
2020-10-14 19:28:11.198: [iter 18 : loss : 41.056165, time: 6.398576]
2020-10-14 19:28:12.202: epoch 18:	0.13170217  	0.08865972  	0.06917366  	0.46106225  	0.58359832  	0.66534948  	0.36523914  	0.39952871  	0.42148766  	0.27952173  	0.28991377  	0.29632741  	0.41023791  	0.41662511  	0.41902927  
2020-10-14 19:28:17.898: [iter 19 : loss : 36.187396, time: 5.695507]
2020-10-14 19:28:18.789: epoch 19:	0.13144299  	0.08882818  	0.06896634  	0.45944253  	0.58371687  	0.66248518  	0.36536771  	0.40016308  	0.42127207  	0.28006622  	0.29060704  	0.29672882  	0.41183347  	0.41832060  	0.42062876  
2020-10-14 19:28:24.094: [iter 20 : loss : 32.346290, time: 5.304587]
2020-10-14 19:28:24.929: epoch 20:	0.13149482  	0.08862086  	0.06890587  	0.45956025  	0.58114117  	0.66375560  	0.36465880  	0.39873344  	0.42067397  	0.27916718  	0.28942284  	0.29572922  	0.41053310  	0.41682181  	0.41934156  
2020-10-14 19:28:30.772: [iter 21 : loss : 29.020657, time: 5.842222]
2020-10-14 19:28:31.614: epoch 21:	0.13066541  	0.08856904  	0.06886266  	0.45679346  	0.58098263  	0.66251016  	0.36349925  	0.39852989  	0.42022851  	0.27861375  	0.28936279  	0.29558790  	0.41007245  	0.41660386  	0.41908854  
2020-10-14 19:28:37.609: [iter 22 : loss : 26.224474, time: 5.994915]
2020-10-14 19:28:38.586: epoch 22:	0.13035434  	0.08837465  	0.06867258  	0.45517850  	0.58014256  	0.65942895  	0.36220041  	0.39742294  	0.41865361  	0.27750877  	0.28838339  	0.29457214  	0.40850785  	0.41494155  	0.41732809  
2020-10-14 19:28:43.569: [iter 23 : loss : 23.820451, time: 4.983229]
2020-10-14 19:28:44.472: epoch 23:	0.12996553  	0.08820622  	0.06856027  	0.45483592  	0.57736456  	0.65889311  	0.36133385  	0.39607909  	0.41776621  	0.27642038  	0.28726974  	0.29346302  	0.40789682  	0.41420358  	0.41669193  
2020-10-14 19:28:49.826: [iter 24 : loss : 21.688842, time: 5.352819]
2020-10-14 19:28:50.763: epoch 24:	0.12965448  	0.08793405  	0.06845659  	0.45455584  	0.57456666  	0.65835303  	0.36044449  	0.39468709  	0.41687211  	0.27542809  	0.28625190  	0.29258305  	0.40698135  	0.41305584  	0.41560569  
2020-10-14 19:28:56.061: [iter 25 : loss : 19.415183, time: 5.296644]
2020-10-14 19:28:57.064: epoch 25:	0.12934345  	0.08789517  	0.06830108  	0.45317447  	0.57591099  	0.65703237  	0.35986447  	0.39481038  	0.41635123  	0.27523413  	0.28628227  	0.29244465  	0.40628520  	0.41247815  	0.41495228  
2020-10-14 19:29:02.960: [iter 26 : loss : 17.670005, time: 5.891532]
2020-10-14 19:29:03.908: epoch 26:	0.12913606  	0.08781741  	0.06828376  	0.45206618  	0.57424891  	0.65653110  	0.35844970  	0.39332080  	0.41513827  	0.27372420  	0.28476784  	0.29095349  	0.40489817  	0.41122663  	0.41378599  
2020-10-14 19:29:10.051: [iter 27 : loss : 15.886282, time: 6.142563]
2020-10-14 19:29:11.286: epoch 27:	0.12905827  	0.08775261  	0.06816281  	0.45088834  	0.57528907  	0.65496916  	0.35764790  	0.39299467  	0.41429156  	0.27296811  	0.28412899  	0.29020432  	0.40418008  	0.41062430  	0.41307586  
2020-10-14 19:29:18.904: [iter 28 : loss : 14.496427, time: 7.617249]
2020-10-14 19:29:20.050: epoch 28:	0.12856579  	0.08759708  	0.06828380  	0.44949049  	0.57387435  	0.65645552  	0.35632119  	0.39180923  	0.41381899  	0.27148253  	0.28275564  	0.28902373  	0.40391967  	0.41029376  	0.41282177  
2020-10-14 19:29:26.540: [iter 29 : loss : 13.414232, time: 6.490308]
2020-10-14 19:29:27.810: epoch 29:	0.12885092  	0.08749339  	0.06823194  	0.45022961  	0.57373410  	0.65709376  	0.35722855  	0.39233214  	0.41446775  	0.27265146  	0.28373611  	0.28999838  	0.40402210  	0.41032535  	0.41290396  
2020-10-14 19:29:35.275: [iter 30 : loss : 12.324726, time: 7.463997]
2020-10-14 19:29:36.705: epoch 30:	0.12843619  	0.08744153  	0.06810234  	0.44905454  	0.57249260  	0.65553302  	0.35582948  	0.39099529  	0.41302893  	0.27111155  	0.28227261  	0.28852287  	0.40275449  	0.40910172  	0.41165882  
2020-10-14 19:29:43.969: [iter 31 : loss : 11.332938, time: 7.258612]
2020-10-14 19:29:45.083: epoch 31:	0.12830661  	0.08716936  	0.06814552  	0.44938421  	0.57124621  	0.65699291  	0.35540161  	0.39008778  	0.41274092  	0.27050412  	0.28142604  	0.28786218  	0.40275955  	0.40908989  	0.41178766  
2020-10-14 19:29:52.504: [iter 32 : loss : 10.291795, time: 7.421139]
2020-10-14 19:29:53.568: epoch 32:	0.12822884  	0.08707865  	0.06817146  	0.44743267  	0.57183367  	0.65635556  	0.35518458  	0.39039800  	0.41289696  	0.27070937  	0.28165284  	0.28813162  	0.40369406  	0.41021797  	0.41278771  
2020-10-14 19:29:59.854: [iter 33 : loss : 9.667258, time: 6.267933]
2020-10-14 19:30:01.043: epoch 33:	0.12804742  	0.08715642  	0.06793818  	0.44599742  	0.57153499  	0.65513021  	0.35412657  	0.38967592  	0.41174659  	0.26974976  	0.28084534  	0.28709438  	0.40222928  	0.40873763  	0.41128099  
2020-10-14 19:30:08.432: [iter 34 : loss : 8.865061, time: 7.385645]
2020-10-14 19:30:09.603: epoch 34:	0.12784007  	0.08711752  	0.06797275  	0.44508800  	0.57005978  	0.65546858  	0.35275644  	0.38821629  	0.41070059  	0.26826161  	0.27938151  	0.28569672  	0.40059677  	0.40698364  	0.40961918  
2020-10-14 19:30:16.050: [iter 35 : loss : 8.245169, time: 6.444380]
2020-10-14 19:30:17.233: epoch 35:	0.12760676  	0.08702680  	0.06786041  	0.44400993  	0.56939727  	0.65497947  	0.35191041  	0.38753206  	0.41002551  	0.26753756  	0.27883613  	0.28511432  	0.39978555  	0.40620944  	0.40880874  
2020-10-14 19:30:24.504: [iter 36 : loss : 7.844118, time: 7.270790]
2020-10-14 19:30:25.735: epoch 36:	0.12706241  	0.08681948  	0.06768761  	0.44292834  	0.56801003  	0.65227568  	0.35146907  	0.38705793  	0.40929931  	0.26755148  	0.27883205  	0.28509316  	0.39898703  	0.40538225  	0.40794519  
2020-10-14 19:30:32.867: [iter 37 : loss : 7.279258, time: 7.131349]
2020-10-14 19:30:34.066: epoch 37:	0.12695870  	0.08671582  	0.06766170  	0.44106531  	0.56710076  	0.65048748  	0.34964314  	0.38540849  	0.40751800  	0.26584336  	0.27699915  	0.28329182  	0.39659575  	0.40315089  	0.40565595  
2020-10-14 19:30:41.437: [iter 38 : loss : 6.662624, time: 7.370021]
2020-10-14 19:30:42.657: epoch 38:	0.12651807  	0.08643071  	0.06758394  	0.43885154  	0.56566244  	0.64932293  	0.34949857  	0.38547546  	0.40775082  	0.26624015  	0.27744797  	0.28382960  	0.39819279  	0.40476859  	0.40729564  
2020-10-14 19:30:50.004: [iter 39 : loss : 6.173681, time: 7.346960]
2020-10-14 19:30:51.141: epoch 39:	0.12633663  	0.08644368  	0.06755804  	0.43801308  	0.56590468  	0.64974356  	0.34857160  	0.38476941  	0.40706402  	0.26547489  	0.27666429  	0.28303841  	0.39612591  	0.40273833  	0.40522894  
2020-10-14 19:30:58.779: [iter 40 : loss : 5.956898, time: 7.636699]
2020-10-14 19:31:00.080: epoch 40:	0.12615521  	0.08652142  	0.06753212  	0.43703961  	0.56559730  	0.64853656  	0.34799844  	0.38442087  	0.40644944  	0.26483896  	0.27616039  	0.28240174  	0.39669970  	0.40330809  	0.40581673  
2020-10-14 19:31:06.693: [iter 41 : loss : 5.414863, time: 6.612157]
2020-10-14 19:31:07.913: epoch 41:	0.12633665  	0.08640476  	0.06733340  	0.43872532  	0.56391954  	0.64655268  	0.34789357  	0.38337916  	0.40529120  	0.26408356  	0.27506435  	0.28127143  	0.39683020  	0.40318832  	0.40572047  
2020-10-14 19:31:15.503: [iter 42 : loss : 5.010198, time: 7.590138]
2020-10-14 19:31:16.699: epoch 42:	0.12602560  	0.08624923  	0.06729884  	0.43732920  	0.56306243  	0.64777374  	0.34736711  	0.38306066  	0.40541351  	0.26398620  	0.27505320  	0.28135669  	0.39622831  	0.40269715  	0.40524819  
2020-10-14 19:31:24.306: [iter 43 : loss : 4.891009, time: 7.603476]
2020-10-14 19:31:25.483: epoch 43:	0.12542942  	0.08624922  	0.06736798  	0.43456873  	0.56264532  	0.64789748  	0.34706122  	0.38349786  	0.40600961  	0.26428005  	0.27570224  	0.28207457  	0.39710662  	0.40367466  	0.40627569  
2020-10-14 19:31:32.848: [iter 44 : loss : 4.484529, time: 7.364298]
2020-10-14 19:31:34.115: epoch 44:	0.12540352  	0.08619740  	0.06729020  	0.43404797  	0.56276995  	0.64592981  	0.34615532  	0.38267592  	0.40475950  	0.26336804  	0.27469158  	0.28103137  	0.39548478  	0.40218723  	0.40466866  
2020-10-14 19:31:41.569: [iter 45 : loss : 4.292331, time: 7.452657]
2020-10-14 19:31:42.732: epoch 45:	0.12550718  	0.08608075  	0.06729886  	0.43385226  	0.56374902  	0.64643514  	0.34600306  	0.38255292  	0.40461203  	0.26327953  	0.27447489  	0.28080237  	0.39482728  	0.40157181  	0.40406823  
2020-10-14 19:31:48.467: [iter 46 : loss : 4.058697, time: 5.733272]
2020-10-14 19:31:49.575: epoch 46:	0.12483326  	0.08602891  	0.06715196  	0.43191722  	0.56227118  	0.64380544  	0.34528309  	0.38228872  	0.40405342  	0.26321697  	0.27472651  	0.28095615  	0.39410833  	0.40086097  	0.40332016  
2020-10-14 19:31:55.696: [iter 47 : loss : 3.682492, time: 6.120359]
2020-10-14 19:31:56.936: epoch 47:	0.12475550  	0.08593819  	0.06710013  	0.43198293  	0.56134230  	0.64374435  	0.34434187  	0.38110021  	0.40302435  	0.26176748  	0.27326256  	0.27950585  	0.39354575  	0.40017089  	0.40265986  
2020-10-14 19:32:03.911: [iter 48 : loss : 3.684437, time: 6.975371]
2020-10-14 19:32:05.123: epoch 48:	0.12483328  	0.08587338  	0.06716925  	0.43136233  	0.56047505  	0.64525431  	0.34360489  	0.38016179  	0.40263137  	0.26079836  	0.27222446  	0.27858415  	0.39274961  	0.39925739  	0.40184465  
2020-10-14 19:32:12.224: [iter 49 : loss : 3.425940, time: 7.100517]
2020-10-14 19:32:13.502: epoch 49:	0.12485921  	0.08583454  	0.06705695  	0.43186462  	0.56049991  	0.64378864  	0.34362483  	0.37997293  	0.40210330  	0.26059756  	0.27194479  	0.27822655  	0.39315990  	0.39965060  	0.40214822  
2020-10-14 19:32:20.543: [iter 50 : loss : 3.201355, time: 7.035970]
2020-10-14 19:32:21.606: epoch 50:	0.12462590  	0.08564015  	0.06688416  	0.43076512  	0.55956733  	0.64261580  	0.34324837  	0.37964657  	0.40174356  	0.26069060  	0.27208823  	0.27838030  	0.39245304  	0.39888817  	0.40140823  
2020-10-14 19:32:28.901: [iter 51 : loss : 3.019663, time: 7.293509]
2020-10-14 19:32:30.122: epoch 51:	0.12447039  	0.08560127  	0.06683232  	0.43065205  	0.55973923  	0.64104939  	0.34247372  	0.37895751  	0.40070480  	0.25991818  	0.27128920  	0.27752227  	0.39083958  	0.39734679  	0.39980328  
2020-10-14 19:32:37.502: [iter 52 : loss : 2.905275, time: 7.374599]
2020-10-14 19:32:38.516: epoch 52:	0.12454817  	0.08545872  	0.06685824  	0.43075579  	0.55839443  	0.64153820  	0.34278622  	0.37886721  	0.40103078  	0.26012477  	0.27136832  	0.27771029  	0.39173737  	0.39825916  	0.40075952  
2020-10-14 19:32:45.498: [iter 53 : loss : 2.682104, time: 6.978851]
2020-10-14 19:32:46.536: epoch 53:	0.12439263  	0.08534206  	0.06677182  	0.43113336  	0.55757761  	0.64178628  	0.34271771  	0.37853968  	0.40089971  	0.26018408  	0.27139053  	0.27771971  	0.39112964  	0.39760068  	0.40014255  
2020-10-14 19:32:53.740: [iter 54 : loss : 2.558467, time: 7.204526]
2020-10-14 19:32:55.023: epoch 54:	0.12387422  	0.08535503  	0.06671999  	0.42894235  	0.55875361  	0.63999802  	0.34240887  	0.37919062  	0.40091798  	0.26026425  	0.27184662  	0.27809340  	0.39225718  	0.39884403  	0.40122527  
2020-10-14 19:33:02.561: [iter 55 : loss : 2.525768, time: 7.534980]
2020-10-14 19:33:03.599: epoch 55:	0.12402973  	0.08508293  	0.06669407  	0.42991924  	0.55722356  	0.63911438  	0.34143025  	0.37736425  	0.39939603  	0.25892374  	0.27017322  	0.27653733  	0.38969502  	0.39601186  	0.39843690  
2020-10-14 19:33:11.034: [iter 56 : loss : 2.236696, time: 7.435153]
2020-10-14 19:33:12.253: epoch 56:	0.12408155  	0.08499218  	0.06665953  	0.42944607  	0.55686802  	0.63865519  	0.34158096  	0.37741145  	0.39943987  	0.25925148  	0.27026889  	0.27663577  	0.39028049  	0.39666370  	0.39909461  
2020-10-14 19:33:19.836: [iter 57 : loss : 2.239049, time: 7.582500]
2020-10-14 19:33:21.042: epoch 57:	0.12408154  	0.08496629  	0.06658177  	0.43064091  	0.55581045  	0.63819748  	0.34129137  	0.37660268  	0.39872962  	0.25870439  	0.26956445  	0.27594587  	0.38926151  	0.39556623  	0.39797843  
2020-10-14 19:33:28.332: [iter 58 : loss : 2.137404, time: 7.279391]
2020-10-14 19:33:29.585: epoch 58:	0.12397785  	0.08486260  	0.06659902  	0.42934918  	0.55389577  	0.63643831  	0.34081829  	0.37598467  	0.39823395  	0.25821024  	0.26917088  	0.27561578  	0.38941777  	0.39554939  	0.39799958  
2020-10-14 19:33:35.813: [iter 59 : loss : 2.134002, time: 6.227910]
2020-10-14 19:33:36.614: epoch 59:	0.12348536  	0.08495332  	0.06649534  	0.42672902  	0.55507970  	0.63595963  	0.33997145  	0.37629855  	0.39808357  	0.25788799  	0.26922178  	0.27553082  	0.38901469  	0.39556402  	0.39792484  
2020-10-14 19:33:42.338: [iter 60 : loss : 1.951187, time: 5.720213]
2020-10-14 19:33:43.468: epoch 60:	0.12366679  	0.08487555  	0.06651263  	0.42725155  	0.55449456  	0.63580722  	0.33966956  	0.37555221  	0.39746350  	0.25733650  	0.26842970  	0.27472553  	0.38838378  	0.39488280  	0.39732680  
2020-10-14 19:33:51.084: [iter 61 : loss : 1.893448, time: 7.615978]
2020-10-14 19:33:52.449: epoch 61:	0.12382233  	0.08466822  	0.06646080  	0.42868653  	0.55271441  	0.63494825  	0.34078234  	0.37570831  	0.39787069  	0.25829569  	0.26909003  	0.27546418  	0.38964814  	0.39584324  	0.39829019  
2020-10-14 19:33:59.861: [iter 62 : loss : 1.863602, time: 7.411697]
2020-10-14 19:34:01.073: epoch 62:	0.12330391  	0.08446085  	0.06650401  	0.42671719  	0.55103523  	0.63539964  	0.34018311  	0.37531164  	0.39804175  	0.25811940  	0.26904976  	0.27560809  	0.38973472  	0.39590165  	0.39848921  
2020-10-14 19:34:08.736: [iter 63 : loss : 1.759035, time: 7.662482]
2020-10-14 19:34:09.832: epoch 63:	0.12317429  	0.08460341  	0.06640895  	0.42605889  	0.55146849  	0.63388008  	0.34038934  	0.37589967  	0.39808890  	0.25853679  	0.26966473  	0.27603814  	0.39046589  	0.39673194  	0.39924946  
2020-10-14 19:34:17.300: [iter 64 : loss : 1.573716, time: 7.466094]
2020-10-14 19:34:18.462: epoch 64:	0.12304468  	0.08459044  	0.06645215  	0.42581952  	0.55242431  	0.63458538  	0.34034559  	0.37610754  	0.39831182  	0.25858757  	0.26975754  	0.27621195  	0.39029872  	0.39673772  	0.39918068  
2020-10-14 19:34:25.830: [iter 65 : loss : 1.600786, time: 7.368316]
2020-10-14 19:34:26.969: epoch 65:	0.12312247  	0.08452563  	0.06638303  	0.42451277  	0.55174869  	0.63416964  	0.34054017  	0.37638775  	0.39860880  	0.25934100  	0.27040812  	0.27680743  	0.39024749  	0.39676377  	0.39928633  
2020-10-14 19:34:34.461: [iter 66 : loss : 1.548652, time: 7.490938]
2020-10-14 19:34:35.590: epoch 66:	0.12312248  	0.08449970  	0.06630529  	0.42533302  	0.55223453  	0.63356769  	0.34053171  	0.37628999  	0.39822435  	0.25905731  	0.27011892  	0.27643678  	0.39045656  	0.39691526  	0.39938080  
2020-10-14 19:34:42.904: [iter 67 : loss : 1.480789, time: 7.314038]
2020-10-14 19:34:44.104: epoch 67:	0.12291511  	0.08448676  	0.06627072  	0.42485416  	0.55276555  	0.63215441  	0.33985624  	0.37585351  	0.39742619  	0.25810516  	0.26928967  	0.27555221  	0.39098123  	0.39738247  	0.39979890  
2020-10-14 19:34:51.812: [iter 68 : loss : 1.462020, time: 7.705263]
2020-10-14 19:34:53.088: epoch 68:	0.12291511  	0.08447379  	0.06628799  	0.42457023  	0.55336142  	0.63330823  	0.33898517  	0.37517747  	0.39684325  	0.25719526  	0.26834571  	0.27465108  	0.38912007  	0.39565954  	0.39803088  
2020-10-14 19:35:00.310: [iter 69 : loss : 1.377600, time: 7.220512]
2020-10-14 19:35:01.332: epoch 69:	0.12312248  	0.08422757  	0.06623618  	0.42517263  	0.55144101  	0.63349557  	0.33907863  	0.37447321  	0.39661539  	0.25706148  	0.26788166  	0.27432144  	0.38894087  	0.39538312  	0.39782003  
2020-10-14 19:35:08.641: [iter 70 : loss : 1.303724, time: 7.308211]
2020-10-14 19:35:09.817: epoch 70:	0.12288921  	0.08403318  	0.06602014  	0.42470199  	0.54899806  	0.63122952  	0.33854306  	0.37349087  	0.39567566  	0.25644463  	0.26713529  	0.27360436  	0.38932559  	0.39568418  	0.39814737  
2020-10-14 19:35:16.785: [iter 71 : loss : 1.289049, time: 6.965813]
2020-10-14 19:35:17.706: epoch 71:	0.12332988  	0.08398136  	0.06608927  	0.42660919  	0.54734302  	0.63268781  	0.33950141  	0.37338939  	0.39621782  	0.25713083  	0.26750264  	0.27407351  	0.38963515  	0.39560172  	0.39817247  
2020-10-14 19:35:24.209: [iter 72 : loss : 1.135126, time: 6.501850]
2020-10-14 19:35:25.214: epoch 72:	0.12268184  	0.08396844  	0.06611518  	0.42416778  	0.54718602  	0.63141787  	0.33860230  	0.37332496  	0.39596656  	0.25659475  	0.26732209  	0.27389276  	0.38971817  	0.39595878  	0.39848778  
2020-10-14 19:35:30.997: [iter 73 : loss : 1.209875, time: 5.779316]
2020-10-14 19:35:31.832: epoch 73:	0.12283738  	0.08379996  	0.06612383  	0.42463154  	0.54613745  	0.63163084  	0.33823049  	0.37242237  	0.39541757  	0.25606644  	0.26652959  	0.27320910  	0.38887605  	0.39506498  	0.39763832  
2020-10-14 19:35:38.724: [iter 74 : loss : 1.130816, time: 6.890374]
2020-10-14 19:35:39.760: epoch 74:	0.12250041  	0.08378698  	0.06612383  	0.42368308  	0.54668802  	0.63204211  	0.33748719  	0.37211707  	0.39505073  	0.25539112  	0.26599824  	0.27272397  	0.38814503  	0.39444464  	0.39693704  
2020-10-14 19:35:47.068: [iter 75 : loss : 1.084439, time: 7.306812]
2020-10-14 19:35:48.368: epoch 75:	0.12247450  	0.08381291  	0.06615837  	0.42378843  	0.54615468  	0.63271612  	0.33725429  	0.37175715  	0.39491776  	0.25500146  	0.26562989  	0.27232301  	0.38799158  	0.39425209  	0.39680225  
2020-10-14 19:35:55.807: [iter 76 : loss : 1.105896, time: 7.438603]
2020-10-14 19:35:57.159: epoch 76:	0.12255228  	0.08389065  	0.06614110  	0.42351800  	0.54645759  	0.63156909  	0.33735627  	0.37201816  	0.39484519  	0.25535077  	0.26607153  	0.27267426  	0.38732949  	0.39363995  	0.39616317  
2020-10-14 19:36:04.348: [iter 77 : loss : 0.988911, time: 7.187775]
2020-10-14 19:36:05.447: epoch 77:	0.12286330  	0.08385178  	0.06613246  	0.42373332  	0.54693353  	0.63305968  	0.33716846  	0.37171260  	0.39469087  	0.25509098  	0.26562759  	0.27224675  	0.38675517  	0.39299688  	0.39555138  
2020-10-14 19:36:12.420: [iter 78 : loss : 1.067682, time: 6.972475]
2020-10-14 19:36:13.708: epoch 78:	0.12250039  	0.08372217  	0.06601150  	0.42288807  	0.54519427  	0.63181025  	0.33696720  	0.37148896  	0.39454564  	0.25521660  	0.26586005  	0.27246481  	0.38654146  	0.39281625  	0.39539516  
2020-10-14 19:36:21.173: [iter 79 : loss : 1.032254, time: 7.464928]
2020-10-14 19:36:22.169: epoch 79:	0.12226710  	0.08376104  	0.06584731  	0.42276385  	0.54601753  	0.63013470  	0.33650774  	0.37134179  	0.39382091  	0.25469530  	0.26540107  	0.27191475  	0.38608599  	0.39249766  	0.39498007  
2020-10-14 19:36:29.590: [iter 80 : loss : 0.958573, time: 7.421065]
2020-10-14 19:36:30.800: epoch 80:	0.12218937  	0.08377400  	0.06582139  	0.42178595  	0.54636014  	0.63012403  	0.33540776  	0.37058756  	0.39293066  	0.25347716  	0.26423383  	0.27068663  	0.38524261  	0.39175043  	0.39424369  
2020-10-14 19:36:38.018: [iter 81 : loss : 0.916522, time: 7.218080]
2020-10-14 19:36:39.059: epoch 81:	0.12216343  	0.08385178  	0.06577818  	0.42171308  	0.54692847  	0.62893999  	0.33512038  	0.37044448  	0.39238364  	0.25311157  	0.26390129  	0.27024680  	0.38534692  	0.39191186  	0.39433029  
2020-10-14 19:36:46.598: [iter 82 : loss : 0.810524, time: 7.535393]
2020-10-14 19:36:47.858: epoch 82:	0.12211159  	0.08382586  	0.06573498  	0.42297238  	0.54680026  	0.62871134  	0.33609557  	0.37107286  	0.39298812  	0.25399512  	0.26470569  	0.27104327  	0.38677144  	0.39314255  	0.39556071  
2020-10-14 19:36:55.196: [iter 83 : loss : 0.897548, time: 7.338000]
2020-10-14 19:36:56.295: epoch 83:	0.12231899  	0.08376104  	0.06569178  	0.42298454  	0.54666841  	0.62720710  	0.33659315  	0.37139982  	0.39308628  	0.25436100  	0.26504055  	0.27135378  	0.38825527  	0.39454889  	0.39691654  
2020-10-14 19:37:03.583: [iter 84 : loss : 0.876261, time: 7.287315]
2020-10-14 19:37:04.852: epoch 84:	0.12216345  	0.08363149  	0.06572632  	0.42267442  	0.54632062  	0.62818319  	0.33585930  	0.37065262  	0.39270297  	0.25367388  	0.26427403  	0.27076259  	0.38665855  	0.39304134  	0.39542350  
2020-10-14 19:37:12.141: [iter 85 : loss : 0.876092, time: 7.288702]
2020-10-14 19:37:13.353: epoch 85:	0.12190424  	0.08372219  	0.06576089  	0.42196223  	0.54681027  	0.62942147  	0.33482781  	0.37010330  	0.39221829  	0.25279233  	0.26362234  	0.27007282  	0.38443294  	0.39096949  	0.39335570  
2020-10-14 19:37:19.681: [iter 86 : loss : 0.827677, time: 6.327342]
2020-10-14 19:37:20.736: epoch 86:	0.12164499  	0.08361851  	0.06570042  	0.41982767  	0.54656190  	0.62876046  	0.33510527  	0.37087160  	0.39294237  	0.25379488  	0.26467115  	0.27113810  	0.38569555  	0.39247471  	0.39486524  
2020-10-14 19:37:27.644: [iter 87 : loss : 0.791365, time: 6.907643]
2020-10-14 19:37:28.728: epoch 87:	0.12174866  	0.08363149  	0.06577820  	0.42090088  	0.54685330  	0.63007796  	0.33526471  	0.37074777  	0.39304268  	0.25364432  	0.26445228  	0.27094477  	0.38582036  	0.39241812  	0.39485577  
2020-10-14 19:37:35.340: [iter 88 : loss : 0.800581, time: 6.611354]
2020-10-14 19:37:36.436: epoch 88:	0.12156723  	0.08365739  	0.06576091  	0.42014170  	0.54617614  	0.62960345  	0.33476260  	0.37043038  	0.39273652  	0.25326174  	0.26423678  	0.27066773  	0.38522303  	0.39179543  	0.39428359  
2020-10-14 19:37:42.817: [iter 89 : loss : 0.696356, time: 6.380382]
2020-10-14 19:37:43.659: epoch 89:	0.12185238  	0.08368330  	0.06583002  	0.42116863  	0.54561120  	0.62926185  	0.33510000  	0.37021485  	0.39262238  	0.25336674  	0.26403540  	0.27052963  	0.38533616  	0.39177829  	0.39426702  
2020-10-14 19:37:49.799: [iter 90 : loss : 0.775230, time: 6.139162]
2020-10-14 19:37:50.681: epoch 90:	0.12177462  	0.08356669  	0.06593372  	0.42152059  	0.54488486  	0.62967664  	0.33513314  	0.36993444  	0.39271680  	0.25339058  	0.26398537  	0.27062678  	0.38493520  	0.39126232  	0.39377353  
2020-10-14 19:37:56.779: [iter 91 : loss : 0.769845, time: 6.097299]
2020-10-14 19:37:57.741: epoch 91:	0.12159317  	0.08351487  	0.06583004  	0.41928577  	0.54345763  	0.62875104  	0.33465827  	0.36974943  	0.39261544  	0.25335348  	0.26406547  	0.27069125  	0.38564965  	0.39209023  	0.39462921  
2020-10-14 19:38:04.032: [iter 92 : loss : 0.682648, time: 6.289108]
2020-10-14 19:38:04.997: epoch 92:	0.12128215  	0.08346304  	0.06576955  	0.41951376  	0.54338890  	0.62864512  	0.33492914  	0.37002626  	0.39287412  	0.25354332  	0.26429453  	0.27091864  	0.38703620  	0.39342579  	0.39594033  
2020-10-14 19:38:12.177: [iter 93 : loss : 0.647012, time: 7.179147]
2020-10-14 19:38:13.483: epoch 93:	0.12148955  	0.08334640  	0.06572635  	0.41959980  	0.54324579  	0.62802804  	0.33439144  	0.36929482  	0.39208490  	0.25266430  	0.26330930  	0.26996085  	0.38639480  	0.39272505  	0.39519814  
2020-10-14 19:38:20.712: [iter 94 : loss : 0.651036, time: 7.227989]
2020-10-14 19:38:21.891: epoch 94:	0.12115256  	0.08326865  	0.06570043  	0.41845861  	0.54179680  	0.62743527  	0.33368027  	0.36861798  	0.39160961  	0.25214097  	0.26283672  	0.26954272  	0.38577250  	0.39222518  	0.39472708  
2020-10-14 19:38:28.971: [iter 95 : loss : 0.642267, time: 7.079707]
2020-10-14 19:38:30.008: epoch 95:	0.12138584  	0.08329456  	0.06566586  	0.41958344  	0.54312176  	0.62852472  	0.33458230  	0.36944291  	0.39232472  	0.25267318  	0.26333642  	0.26994157  	0.38774085  	0.39409986  	0.39661565  
2020-10-14 19:38:37.421: [iter 96 : loss : 0.649839, time: 7.411961]
2020-10-14 19:38:38.529: epoch 96:	0.12128219  	0.08324272  	0.06566587  	0.41969785  	0.54268491  	0.62801439  	0.33424962  	0.36902583  	0.39192620  	0.25239968  	0.26304182  	0.26967019  	0.38685122  	0.39322138  	0.39572489  
2020-10-14 19:38:46.074: [iter 97 : loss : 0.595555, time: 7.544330]
2020-10-14 19:38:47.224: epoch 97:	0.12135994  	0.08315200  	0.06568313  	0.41967255  	0.54254055  	0.62864858  	0.33370507  	0.36832851  	0.39144361  	0.25180572  	0.26225716  	0.26899162  	0.38549414  	0.39198050  	0.39442530  
2020-10-14 19:38:54.555: [iter 98 : loss : 0.610941, time: 7.327598]
2020-10-14 19:38:55.632: epoch 98:	0.12128217  	0.08308721  	0.06562266  	0.42003822  	0.54239649  	0.62884063  	0.33377481  	0.36823827  	0.39138958  	0.25181124  	0.26212382  	0.26887748  	0.38536513  	0.39177039  	0.39426544  
2020-10-14 19:39:01.649: [iter 99 : loss : 0.559462, time: 6.016729]
2020-10-14 19:39:02.728: epoch 99:	0.12089333  	0.08298352  	0.06563128  	0.41869554  	0.54215533  	0.62711978  	0.33306065  	0.36793572  	0.39087310  	0.25121120  	0.26181707  	0.26857626  	0.38531533  	0.39177388  	0.39419463  
2020-10-14 19:39:09.103: [iter 100 : loss : 0.594262, time: 6.374875]
2020-10-14 19:39:10.397: epoch 100:	0.12138582  	0.08294463  	0.06563130  	0.41922358  	0.54248744  	0.62735444  	0.33358440  	0.36814532  	0.39110500  	0.25170237  	0.26209471  	0.26888043  	0.38576379  	0.39225146  	0.39464402  
2020-10-14 19:39:17.409: [iter 101 : loss : 0.521198, time: 7.011842]
2020-10-14 19:39:18.379: epoch 101:	0.12115256  	0.08303536  	0.06564858  	0.41877034  	0.54227096  	0.62729549  	0.33358896  	0.36834815  	0.39130184  	0.25185874  	0.26235917  	0.26911476  	0.38569912  	0.39214972  	0.39456326  
2020-10-14 19:39:25.453: [iter 102 : loss : 0.637237, time: 7.073480]
2020-10-14 19:39:26.667: epoch 102:	0.12099702  	0.08315200  	0.06573498  	0.41828731  	0.54297978  	0.62796789  	0.33258328  	0.36778522  	0.39071572  	0.25089771  	0.26153690  	0.26827359  	0.38349661  	0.39010021  	0.39254007  
2020-10-14 19:39:34.283: [iter 103 : loss : 0.502453, time: 7.615012]
2020-10-14 19:39:35.538: epoch 103:	0.12081559  	0.08303539  	0.06560537  	0.41730273  	0.54272908  	0.62692153  	0.33172113  	0.36704573  	0.38982835  	0.24989237  	0.26053745  	0.26727894  	0.38337544  	0.39004850  	0.39243472  
2020-10-14 19:39:42.534: [iter 104 : loss : 0.499451, time: 6.994391]
2020-10-14 19:39:43.712: epoch 104:	0.12094518  	0.08322978  	0.06570040  	0.41765764  	0.54371881  	0.62605429  	0.33267814  	0.36819854  	0.39056140  	0.25104457  	0.26173198  	0.26842719  	0.38443670  	0.39115500  	0.39345753  
2020-10-14 19:39:51.001: [iter 105 : loss : 0.481911, time: 7.287559]
2020-10-14 19:39:52.233: epoch 105:	0.12089337  	0.08330752  	0.06576087  	0.41729483  	0.54458576  	0.62739384  	0.33193055  	0.36778450  	0.39019632  	0.25019714  	0.26101035  	0.26768041  	0.38351017  	0.39024836  	0.39254737  
2020-10-14 19:39:59.502: [iter 106 : loss : 0.549352, time: 7.263652]
2020-10-14 19:40:00.637: epoch 106:	0.12071192  	0.08330751  	0.06574361  	0.41701815  	0.54424894  	0.62805682  	0.33201733  	0.36796817  	0.39055732  	0.25041592  	0.26133206  	0.26802596  	0.38375911  	0.39045098  	0.39277750  
2020-10-14 19:40:07.762: [iter 107 : loss : 0.481687, time: 7.115092]
2020-10-14 19:40:08.704: epoch 107:	0.12091928  	0.08316497  	0.06568312  	0.41679981  	0.54275560  	0.62772280  	0.33232188  	0.36779484  	0.39066023  	0.25101665  	0.26172620  	0.26844624  	0.38341749  	0.39003986  	0.39243776  
2020-10-14 19:40:15.499: [iter 108 : loss : 0.512228, time: 6.794192]
2020-10-14 19:40:16.593: epoch 108:	0.12110071  	0.08313905  	0.06560537  	0.41792947  	0.54172301  	0.62708932  	0.33223611  	0.36716017  	0.39005119  	0.25048530  	0.26109102  	0.26774248  	0.38313299  	0.38963097  	0.39204925  
2020-10-14 19:40:23.951: [iter 109 : loss : 0.492733, time: 7.357937]
2020-10-14 19:40:25.171: epoch 109:	0.12110070  	0.08311316  	0.06554487  	0.41869071  	0.54093450  	0.62712878  	0.33180463  	0.36637771  	0.38940585  	0.24983633  	0.26031739  	0.26696733  	0.38215095  	0.38855356  	0.39102197  
2020-10-14 19:40:32.424: [iter 110 : loss : 0.463370, time: 7.251186]
2020-10-14 19:40:33.704: epoch 110:	0.12125624  	0.08304835  	0.06557943  	0.41884920  	0.54107118  	0.62758762  	0.33268633  	0.36717996  	0.39032304  	0.25085437  	0.26133212  	0.26802132  	0.38395861  	0.39025736  	0.39273235  
2020-10-14 19:40:41.009: [iter 111 : loss : 0.435055, time: 7.304250]
2020-10-14 19:40:42.241: epoch 111:	0.12094518  	0.08300948  	0.06552759  	0.41715240  	0.54033774  	0.62740481  	0.33143932  	0.36627218  	0.38948366  	0.25000355  	0.26057446  	0.26726893  	0.38224193  	0.38865450  	0.39115742  
2020-10-14 19:40:48.703: [iter 112 : loss : 0.426967, time: 6.461790]
2020-10-14 19:40:49.719: epoch 112:	0.12068597  	0.08289284  	0.06557077  	0.41654679  	0.54042333  	0.62773681  	0.33133122  	0.36631608  	0.38966450  	0.24995963  	0.26056391  	0.26737133  	0.38264853  	0.38917676  	0.39164248  
2020-10-14 19:40:56.154: [iter 113 : loss : 0.445921, time: 6.432288]
2020-10-14 19:40:57.107: epoch 113:	0.12060818  	0.08308722  	0.06551895  	0.41537607  	0.54170090  	0.62587482  	0.33060431  	0.36626124  	0.38887158  	0.24924101  	0.26007083  	0.26667750  	0.38255394  	0.38919276  	0.39157724  
2020-10-14 19:41:04.228: [iter 114 : loss : 0.441475, time: 7.120302]
2020-10-14 19:41:05.350: epoch 114:	0.12058226  	0.08315203  	0.06559671  	0.41502607  	0.54231912  	0.62703204  	0.33064404  	0.36659145  	0.38936281  	0.24952033  	0.26041281  	0.26704383  	0.38239026  	0.38921693  	0.39163437  
2020-10-14 19:41:12.671: [iter 115 : loss : 0.383599, time: 7.321092]
2020-10-14 19:41:13.819: epoch 115:	0.12063411  	0.08310019  	0.06568311  	0.41544428  	0.54288632  	0.62719846  	0.33046770  	0.36637527  	0.38915294  	0.24930595  	0.26010436  	0.26679689  	0.38177100  	0.38857865  	0.39095077  
2020-10-14 19:41:21.435: [iter 116 : loss : 0.437951, time: 7.614551]
2020-10-14 19:41:22.516: epoch 116:	0.12050452  	0.08310018  	0.06574362  	0.41585702  	0.54265463  	0.62804562  	0.33070871  	0.36648005  	0.38948223  	0.24945375  	0.26020762  	0.26697105  	0.38198140  	0.38876778  	0.39116237  
2020-10-14 19:41:29.726: [iter 117 : loss : 0.404212, time: 7.208876]
2020-10-14 19:41:31.047: epoch 117:	0.12050452  	0.08317793  	0.06573496  	0.41566086  	0.54352635  	0.62836605  	0.33014265  	0.36617628  	0.38900509  	0.24891782  	0.25977209  	0.26645723  	0.38087019  	0.38764921  	0.39007911  
2020-10-14 19:41:38.445: [iter 118 : loss : 0.360594, time: 7.398087]
2020-10-14 19:41:39.652: epoch 118:	0.12042676  	0.08297059  	0.06570905  	0.41471884  	0.54208618  	0.62872100  	0.32992050  	0.36580631  	0.38908476  	0.24883367  	0.25965780  	0.26645881  	0.38109320  	0.38781545  	0.39031640  
2020-10-14 19:41:46.996: [iter 119 : loss : 0.400548, time: 7.343410]
2020-10-14 19:41:48.273: epoch 119:	0.12053045  	0.08290576  	0.06574360  	0.41529331  	0.54186976  	0.62889475  	0.33011991  	0.36576113  	0.38918683  	0.24909304  	0.25981432  	0.26668411  	0.38054171  	0.38716647  	0.38967860  
2020-10-14 19:41:54.777: [iter 120 : loss : 0.361466, time: 6.502264]
2020-10-14 19:41:56.101: epoch 120:	0.12073781  	0.08284099  	0.06563991  	0.41631094  	0.54288757  	0.62801373  	0.33077833  	0.36626485  	0.38930878  	0.24949951  	0.26012507  	0.26689720  	0.38148084  	0.38817918  	0.39064059  
2020-10-14 19:42:03.350: [iter 121 : loss : 0.378208, time: 7.246584]
2020-10-14 19:42:04.546: epoch 121:	0.12040085  	0.08290578  	0.06555349  	0.41452360  	0.54273528  	0.62724996  	0.33035600  	0.36640537  	0.38920775  	0.24944870  	0.26032531  	0.26697293  	0.38162842  	0.38834721  	0.39083177  
2020-10-14 19:42:11.891: [iter 122 : loss : 0.334994, time: 7.345048]
2020-10-14 19:42:13.121: epoch 122:	0.12019347  	0.08287986  	0.06551893  	0.41430777  	0.54189074  	0.62614673  	0.33001795  	0.36598644  	0.38874999  	0.24913268  	0.25994065  	0.26660103  	0.38177922  	0.38864610  	0.39106876  
2020-10-14 19:42:20.460: [iter 123 : loss : 0.379506, time: 7.337448]
2020-10-14 19:42:21.848: epoch 123:	0.12016753  	0.08303535  	0.06557079  	0.41434437  	0.54358584  	0.62708867  	0.32994834  	0.36636835  	0.38888532  	0.24908996  	0.26000306  	0.26661363  	0.38151971  	0.38848072  	0.39083865  
2020-10-14 19:42:29.298: [iter 124 : loss : 0.404172, time: 7.448139]
2020-10-14 19:42:30.516: epoch 124:	0.12021937  	0.08295760  	0.06552760  	0.41351727  	0.54279524  	0.62689948  	0.32958186  	0.36596438  	0.38861886  	0.24879976  	0.25969008  	0.26630977  	0.38100237  	0.38795042  	0.39034194  
2020-10-14 19:42:37.900: [iter 125 : loss : 0.360252, time: 7.383976]
2020-10-14 19:42:38.919: epoch 125:	0.12014160  	0.08297057  	0.06557079  	0.41307640  	0.54298532  	0.62757182  	0.32951915  	0.36609831  	0.38886678  	0.24883845  	0.25978294  	0.26644251  	0.38130698  	0.38835284  	0.39075592  
2020-10-14 19:42:44.278: [iter 126 : loss : 0.364971, time: 5.352771]
2020-10-14 19:42:45.293: epoch 126:	0.12003790  	0.08303536  	0.06550167  	0.41179782  	0.54318917  	0.62681764  	0.32940763  	0.36639950  	0.38887388  	0.24899322  	0.26002884  	0.26657477  	0.38193163  	0.38916337  	0.39156505  
2020-10-14 19:42:52.393: [iter 127 : loss : 0.352179, time: 7.099040]
2020-10-14 19:42:53.623: epoch 127:	0.12011566  	0.08299650  	0.06548439  	0.41205588  	0.54245889  	0.62655830  	0.32940555  	0.36614639  	0.38870060  	0.24890172  	0.25993764  	0.26646769  	0.38190818  	0.38900107  	0.39142740  
2020-10-14 19:43:01.197: [iter 128 : loss : 0.343670, time: 7.572175]
2020-10-14 19:43:02.435: epoch 128:	0.12027120  	0.08299649  	0.06553624  	0.41211119  	0.54295236  	0.62660146  	0.32950857  	0.36627272  	0.38879052  	0.24899606  	0.26000008  	0.26652235  	0.38187045  	0.38896024  	0.39138108  
2020-10-14 19:43:10.027: [iter 129 : loss : 0.318634, time: 7.591177]
2020-10-14 19:43:11.163: epoch 129:	0.12032303  	0.08295760  	0.06556217  	0.41191733  	0.54270542  	0.62764674  	0.32982442  	0.36653948  	0.38935632  	0.24944806  	0.26045230  	0.26706076  	0.38245416  	0.38945779  	0.39194250  
2020-10-14 19:43:18.812: [iter 130 : loss : 0.332148, time: 7.648209]
2020-10-14 19:43:20.047: epoch 130:	0.12029710  	0.08281507  	0.06551032  	0.41128287  	0.54124188  	0.62630671  	0.32997546  	0.36646789  	0.38939255  	0.24987350  	0.26078722  	0.26742309  	0.38292664  	0.38995087  	0.39246011  
2020-10-14 19:43:27.485: [iter 131 : loss : 0.321569, time: 7.437751]
2020-10-14 19:43:28.750: epoch 131:	0.12034895  	0.08313902  	0.06551031  	0.41131639  	0.54248339  	0.62633729  	0.32998243  	0.36687526  	0.38936621  	0.24979612  	0.26085445  	0.26730055  	0.38307056  	0.39014480  	0.39257225  
2020-10-14 19:43:35.978: [iter 132 : loss : 0.324473, time: 7.213862]
2020-10-14 19:43:37.221: epoch 132:	0.12003787  	0.08293170  	0.06549304  	0.41085628  	0.54132414  	0.62600815  	0.32902041  	0.36577463  	0.38855225  	0.24869676  	0.25973704  	0.26631385  	0.38230440  	0.38943973  	0.39190704  
2020-10-14 19:43:44.454: [iter 133 : loss : 0.311177, time: 7.232862]
2020-10-14 19:43:45.682: epoch 133:	0.12019344  	0.08298354  	0.06543256  	0.41166720  	0.54208148  	0.62573928  	0.32829857  	0.36500546  	0.38750926  	0.24764042  	0.25866958  	0.26515543  	0.38001350  	0.38709089  	0.38956013  
2020-10-14 19:43:52.868: [iter 134 : loss : 0.324523, time: 7.184043]
2020-10-14 19:43:54.131: epoch 134:	0.12037488  	0.08294467  	0.06548440  	0.41080350  	0.54322255  	0.62628847  	0.32839689  	0.36538884  	0.38779238  	0.24808696  	0.25909850  	0.26558656  	0.37960804  	0.38685727  	0.38921183  
2020-10-14 19:44:01.569: [iter 135 : loss : 0.321195, time: 7.437254]
2020-10-14 19:44:02.730: epoch 135:	0.11988238  	0.08303536  	0.06544983  	0.40978241  	0.54304546  	0.62574792  	0.32785299  	0.36530349  	0.38753974  	0.24777445  	0.25898501  	0.26542681  	0.37944791  	0.38675538  	0.38906676  
2020-10-14 19:44:09.900: [iter 136 : loss : 0.289499, time: 7.169520]
2020-10-14 19:44:11.016: epoch 136:	0.11990833  	0.08284098  	0.06544983  	0.41055295  	0.54133934  	0.62625086  	0.32892567  	0.36569259  	0.38852632  	0.24885641  	0.25988382  	0.26649454  	0.38105011  	0.38810235  	0.39052716  
2020-10-14 19:44:18.301: [iter 137 : loss : 0.310617, time: 7.284942]
2020-10-14 19:44:19.483: epoch 137:	0.11985648  	0.08290580  	0.06534615  	0.41054964  	0.54194957  	0.62619793  	0.32881612  	0.36578563  	0.38835344  	0.24869768  	0.25982544  	0.26628572  	0.38120136  	0.38833958  	0.39076424  
2020-10-14 19:44:25.696: [iter 138 : loss : 0.284125, time: 6.212209]
2020-10-14 19:44:26.737: epoch 138:	0.11941580  	0.08290578  	0.06537208  	0.40904859  	0.54110146  	0.62581676  	0.32882634  	0.36622435  	0.38890302  	0.24928483  	0.26064914  	0.26714984  	0.38142616  	0.38874853  	0.39116398  
2020-10-14 19:44:32.694: [iter 139 : loss : 0.295596, time: 5.956885]
2020-10-14 19:44:33.620: epoch 139:	0.11944175  	0.08302242  	0.06534616  	0.40811411  	0.54254872  	0.62524217  	0.32800221  	0.36596921  	0.38813695  	0.24839024  	0.25990817  	0.26630032  	0.38081515  	0.38826370  	0.39059669  
2020-10-14 19:44:39.790: [iter 140 : loss : 0.317788, time: 6.168842]
2020-10-14 19:44:40.832: epoch 140:	0.11954544  	0.08284098  	0.06525111  	0.40973526  	0.54086000  	0.62345701  	0.32882959  	0.36593053  	0.38813764  	0.24894591  	0.26017514  	0.26658049  	0.38209876  	0.38939407  	0.39181188  
2020-10-14 19:44:48.008: [iter 141 : loss : 0.310335, time: 7.175256]
2020-10-14 19:44:49.130: epoch 141:	0.11970098  	0.08280212  	0.06531161  	0.41037986  	0.53987616  	0.62505662  	0.32939699  	0.36607128  	0.38881963  	0.24932936  	0.26049668  	0.26702777  	0.38286656  	0.38990223  	0.39241555  
2020-10-14 19:44:56.231: [iter 142 : loss : 0.285533, time: 7.096758]
2020-10-14 19:44:57.526: epoch 142:	0.11933812  	0.08281508  	0.06538074  	0.40862697  	0.53972238  	0.62640589  	0.32893160  	0.36612061  	0.38919306  	0.24920288  	0.26062366  	0.26716214  	0.38297629  	0.39012599  	0.39268258  
2020-10-14 19:45:04.815: [iter 143 : loss : 0.261769, time: 7.287485]
2020-10-14 19:45:06.179: epoch 143:	0.11957140  	0.08278915  	0.06529433  	0.40978155  	0.53997988  	0.62508172  	0.32950473  	0.36632797  	0.38906458  	0.24961209  	0.26084203  	0.26735345  	0.38325629  	0.39031225  	0.39282620  
2020-10-14 19:45:12.830: [iter 144 : loss : 0.254200, time: 6.649820]
2020-10-14 19:45:13.965: epoch 144:	0.11962326  	0.08272434  	0.06535481  	0.40986454  	0.53947926  	0.62590992  	0.32851857  	0.36514533  	0.38824108  	0.24844691  	0.25953478  	0.26616555  	0.38115901  	0.38825968  	0.39078736  
2020-10-14 19:45:21.357: [iter 145 : loss : 0.244220, time: 7.390457]
2020-10-14 19:45:22.481: epoch 145:	0.11964916  	0.08272435  	0.06553625  	0.41069746  	0.53899050  	0.62792152  	0.32878399  	0.36513111  	0.38882056  	0.24853781  	0.25956774  	0.26633883  	0.38170093  	0.38873392  	0.39135858  
2020-10-14 19:45:29.818: [iter 146 : loss : 0.233919, time: 7.336795]
2020-10-14 19:45:30.950: epoch 146:	0.11977876  	0.08275025  	0.06544120  	0.41060606  	0.53885961  	0.62606579  	0.32873169  	0.36497083  	0.38827214  	0.24863650  	0.25957102  	0.26627067  	0.38051552  	0.38749674  	0.39004448  
2020-10-14 19:45:38.348: [iter 147 : loss : 0.234348, time: 7.398358]
2020-10-14 19:45:39.637: epoch 147:	0.12001204  	0.08269843  	0.06538074  	0.41156125  	0.53880191  	0.62632418  	0.32922766  	0.36509669  	0.38843140  	0.24903630  	0.25978938  	0.26648238  	0.38079754  	0.38773721  	0.39030698  
2020-10-14 19:45:46.953: [iter 148 : loss : 0.229511, time: 7.314937]
2020-10-14 19:45:48.075: epoch 148:	0.11980463  	0.08256884  	0.06524247  	0.41157734  	0.53734887  	0.62397003  	0.32873911  	0.36432898  	0.38750198  	0.24835399  	0.25908828  	0.26575905  	0.38048339  	0.38743171  	0.38996473  
2020-10-14 19:45:55.629: [iter 149 : loss : 0.197932, time: 7.552943]
2020-10-14 19:45:56.748: epoch 149:	0.11985648  	0.08258182  	0.06542393  	0.41192234  	0.53757387  	0.62478024  	0.32890147  	0.36439145  	0.38782522  	0.24844874  	0.25916338  	0.26595178  	0.38059169  	0.38751084  	0.39003909  
2020-10-14 19:46:03.049: [iter 150 : loss : 0.239119, time: 6.300193]
2020-10-14 19:46:04.190: epoch 150:	0.11962321  	0.08262071  	0.06543257  	0.41111994  	0.53791124  	0.62519974  	0.32806146  	0.36397487  	0.38739219  	0.24755175  	0.25847229  	0.26525578  	0.38004607  	0.38698408  	0.38951522  
2020-10-14 19:46:11.869: [iter 151 : loss : 0.216488, time: 7.675106]
2020-10-14 19:46:13.047: epoch 151:	0.11957136  	0.08258183  	0.06549306  	0.40954477  	0.53746432  	0.62627244  	0.32789135  	0.36411229  	0.38788778  	0.24777003  	0.25878975  	0.26564193  	0.38022330  	0.38730189  	0.38987604  
2020-10-14 19:46:19.582: [iter 152 : loss : 0.235612, time: 6.535095]
2020-10-14 19:46:20.517: epoch 152:	0.11959729  	0.08260775  	0.06541529  	0.40978161  	0.53767627  	0.62512046  	0.32808948  	0.36430418  	0.38776618  	0.24797817  	0.25901818  	0.26580086  	0.38044193  	0.38748816  	0.39001155  
2020-10-14 19:46:26.756: [iter 153 : loss : 0.200695, time: 6.238875]
2020-10-14 19:46:27.881: epoch 153:	0.12011570  	0.08252997  	0.06544121  	0.41191307  	0.53723007  	0.62578487  	0.32876086  	0.36408046  	0.38782081  	0.24814120  	0.25880691  	0.26560944  	0.38089776  	0.38769135  	0.39028808  
2020-10-14 19:46:34.792: [iter 154 : loss : 0.229133, time: 6.910906]
2020-10-14 19:46:35.914: epoch 154:	0.11980464  	0.08250405  	0.06549306  	0.41130486  	0.53689092  	0.62609971  	0.32829499  	0.36381274  	0.38771746  	0.24776529  	0.25855619  	0.26538625  	0.38068700  	0.38751927  	0.39016786  
2020-10-14 19:46:42.260: [iter 155 : loss : 0.250617, time: 6.344004]
2020-10-14 19:46:43.335: epoch 155:	0.11985648  	0.08247812  	0.06549305  	0.41154343  	0.53562915  	0.62596959  	0.32798022  	0.36311498  	0.38728958  	0.24720404  	0.25792989  	0.26477003  	0.38038319  	0.38705793  	0.38982674  
2020-10-14 19:46:48.865: [iter 156 : loss : 0.221834, time: 5.529239]
2020-10-14 19:46:49.967: epoch 156:	0.11972686  	0.08251701  	0.06551896  	0.41009215  	0.53573030  	0.62688881  	0.32804507  	0.36362076  	0.38793615  	0.24768175  	0.25850454  	0.26537117  	0.38076329  	0.38761526  	0.39036798  
2020-10-14 19:46:56.440: [iter 157 : loss : 0.196340, time: 6.462075]
2020-10-14 19:46:57.521: epoch 157:	0.11980461  	0.08259480  	0.06539799  	0.40974826  	0.53633487  	0.62662834  	0.32810438  	0.36389434  	0.38791278  	0.24777777  	0.25869191  	0.26541835  	0.38124290  	0.38806617  	0.39081448  
2020-10-14 19:47:03.952: [iter 158 : loss : 0.213317, time: 6.431084]
2020-10-14 19:47:05.049: epoch 158:	0.11975280  	0.08263367  	0.06537207  	0.40859687  	0.53699863  	0.62602258  	0.32785812  	0.36413521  	0.38785616  	0.24776997  	0.25881615  	0.26546150  	0.38139948  	0.38839424  	0.39111245  
2020-10-14 19:47:11.748: [iter 159 : loss : 0.235596, time: 6.697895]
2020-10-14 19:47:13.009: epoch 159:	0.11972687  	0.08249111  	0.06540662  	0.40925622  	0.53594029  	0.62558722  	0.32813522  	0.36393014  	0.38790539  	0.24789383  	0.25875306  	0.26552588  	0.38189870  	0.38882393  	0.39158452  
2020-10-14 19:47:20.591: [iter 160 : loss : 0.231334, time: 7.579133]
2020-10-14 19:47:21.907: epoch 160:	0.11964910  	0.08250406  	0.06545848  	0.40921390  	0.53541058  	0.62637669  	0.32788458  	0.36360919  	0.38782513  	0.24763887  	0.25849587  	0.26528481  	0.38129112  	0.38827741  	0.39107385  
2020-10-14 19:47:29.516: [iter 161 : loss : 0.268197, time: 7.608646]
2020-10-14 19:47:30.734: epoch 161:	0.11928620  	0.08243924  	0.06544984  	0.40785930  	0.53497189  	0.62604660  	0.32736039  	0.36343426  	0.38770160  	0.24734466  	0.25840580  	0.26526377  	0.38110259  	0.38813889  	0.39092812  
2020-10-14 19:47:37.763: [iter 162 : loss : 0.181023, time: 7.028140]
2020-10-14 19:47:38.943: epoch 162:	0.11949359  	0.08237444  	0.06548440  	0.40922716  	0.53397316  	0.62570357  	0.32753143  	0.36298284  	0.38744912  	0.24720915  	0.25812837  	0.26505420  	0.38052785  	0.38735437  	0.39014205  
2020-10-14 19:47:46.631: [iter 163 : loss : 0.193758, time: 7.688135]
2020-10-14 19:47:48.031: epoch 163:	0.11972690  	0.08238740  	0.06546710  	0.41038838  	0.53413600  	0.62511808  	0.32786837  	0.36298543  	0.38729814  	0.24724068  	0.25801969  	0.26489502  	0.38078049  	0.38754267  	0.39031768  
2020-10-14 19:47:55.653: [iter 164 : loss : 0.231078, time: 7.617892]
2020-10-14 19:47:56.921: epoch 164:	0.11933807  	0.08245220  	0.06543256  	0.40977597  	0.53499371  	0.62504429  	0.32789075  	0.36352548  	0.38758808  	0.24752772  	0.25851420  	0.26532787  	0.38123649  	0.38808921  	0.39080968  
2020-10-14 19:48:03.527: [iter 165 : loss : 0.171831, time: 6.603338]
2020-10-14 19:48:04.622: epoch 165:	0.11941583  	0.08240036  	0.06544984  	0.40878540  	0.53584015  	0.62584180  	0.32792899  	0.36390224  	0.38799334  	0.24773104  	0.25872630  	0.26559442  	0.38182023  	0.38879579  	0.39150426  
2020-10-14 19:48:10.740: [iter 166 : loss : 0.198286, time: 6.117769]
2020-10-14 19:48:11.720: epoch 166:	0.11957136  	0.08256888  	0.06538935  	0.40927273  	0.53749973  	0.62554735  	0.32775328  	0.36397704  	0.38754031  	0.24752869  	0.25853077  	0.26521650  	0.38045976  	0.38752782  	0.39018807  
2020-10-14 19:48:19.247: [iter 167 : loss : 0.214546, time: 7.527020]
2020-10-14 19:48:20.282: epoch 167:	0.11957136  	0.08262073  	0.06542391  	0.40948978  	0.53766823  	0.62609500  	0.32774502  	0.36396542  	0.38761085  	0.24736834  	0.25838518  	0.26510292  	0.38071799  	0.38785112  	0.39045435  
2020-10-14 19:48:27.074: [iter 168 : loss : 0.214132, time: 6.791592]
2020-10-14 19:48:28.335: epoch 168:	0.11954542  	0.08254297  	0.06538070  	0.40886047  	0.53682864  	0.62509453  	0.32751238  	0.36367011  	0.38731200  	0.24721478  	0.25822294  	0.26497674  	0.38049641  	0.38762936  	0.39023274  
2020-10-14 19:48:35.448: [iter 169 : loss : 0.197083, time: 7.109752]
2020-10-14 19:48:36.667: epoch 169:	0.11964910  	0.08262073  	0.06544118  	0.40905452  	0.53615874  	0.62503296  	0.32718894  	0.36315650  	0.38692993  	0.24679850  	0.25773200  	0.26448965  	0.38025135  	0.38734117  	0.39001203  
2020-10-14 19:48:44.047: [iter 170 : loss : 0.172880, time: 7.379427]
2020-10-14 19:48:45.158: epoch 170:	0.11980462  	0.08264663  	0.06541526  	0.41019511  	0.53687608  	0.62597787  	0.32799274  	0.36376438  	0.38754395  	0.24745584  	0.25833327  	0.26504704  	0.38098714  	0.38795826  	0.39063057  
2020-10-14 19:48:52.808: [iter 171 : loss : 0.173195, time: 7.649689]
2020-10-14 19:48:54.057: epoch 171:	0.12006383  	0.08264664  	0.06548437  	0.41033649  	0.53711951  	0.62642473  	0.32777482  	0.36345831  	0.38731760  	0.24713947  	0.25788644  	0.26464179  	0.38047507  	0.38749430  	0.39016640  
2020-10-14 19:49:01.646: [iter 172 : loss : 0.199072, time: 7.579305]
2020-10-14 19:49:02.778: epoch 172:	0.11985647  	0.08267255  	0.06548438  	0.40948573  	0.53703940  	0.62657189  	0.32684284  	0.36280540  	0.38669169  	0.24623422  	0.25705132  	0.26385921  	0.37926295  	0.38635162  	0.38899153  
2020-10-14 19:49:10.131: [iter 173 : loss : 0.152685, time: 7.353300]
2020-10-14 19:49:11.206: epoch 173:	0.11980463  	0.08271143  	0.06541527  	0.40938324  	0.53667176  	0.62662089  	0.32744160  	0.36340970  	0.38730666  	0.24688765  	0.25773001  	0.26449779  	0.38101777  	0.38804826  	0.39071876  
2020-10-14 19:49:18.201: [iter 174 : loss : 0.183104, time: 6.982428]
2020-10-14 19:49:19.512: epoch 174:	0.11977871  	0.08265955  	0.06551030  	0.40842333  	0.53663522  	0.62727213  	0.32679051  	0.36296540  	0.38710120  	0.24642369  	0.25728795  	0.26415649  	0.37979677  	0.38696423  	0.38963929  
2020-10-14 19:49:26.756: [iter 175 : loss : 0.182645, time: 7.243503]
2020-10-14 19:49:28.056: epoch 175:	0.12008978  	0.08260773  	0.06553622  	0.40886891  	0.53641200  	0.62763542  	0.32662335  	0.36243033  	0.38671967  	0.24606666  	0.25670090  	0.26361507  	0.37905264  	0.38618803  	0.38888577  
2020-10-14 19:49:35.331: [iter 176 : loss : 0.182463, time: 7.270892]
2020-10-14 19:49:36.527: epoch 176:	0.11996019  	0.08253000  	0.06558806  	0.40831900  	0.53516996  	0.62738472  	0.32640684  	0.36207747  	0.38663882  	0.24602582  	0.25665414  	0.26362571  	0.37867543  	0.38576275  	0.38850275  
2020-10-14 19:49:43.799: [iter 177 : loss : 0.191136, time: 7.271916]
2020-10-14 19:49:45.096: epoch 177:	0.12006385  	0.08267254  	0.06553622  	0.40895730  	0.53534752  	0.62775791  	0.32677180  	0.36240405  	0.38687930  	0.24629438  	0.25699514  	0.26385263  	0.37923801  	0.38618585  	0.38897344  
2020-10-14 19:49:52.386: [iter 178 : loss : 0.146119, time: 7.290013]
2020-10-14 19:49:53.373: epoch 178:	0.12008977  	0.08275029  	0.06555352  	0.40888008  	0.53637916  	0.62805045  	0.32685405  	0.36271948  	0.38699120  	0.24638169  	0.25713983  	0.26397076  	0.37927002  	0.38623339  	0.38898078  
2020-10-14 19:49:59.594: [iter 179 : loss : 0.188257, time: 6.220207]
2020-10-14 19:50:00.525: epoch 179:	0.11983056  	0.08273733  	0.06552760  	0.40785483  	0.53727192  	0.62717307  	0.32683778  	0.36324736  	0.38715813  	0.24656639  	0.25752187  	0.26430038  	0.37987363  	0.38696119  	0.38962552  
2020-10-14 19:50:07.482: [iter 180 : loss : 0.158544, time: 6.957395]
2020-10-14 19:50:08.706: epoch 180:	0.11983056  	0.08299650  	0.06549302  	0.40886557  	0.53788549  	0.62685299  	0.32638362  	0.36287293  	0.38640574  	0.24575604  	0.25680962  	0.26339152  	0.37882257  	0.38584951  	0.38850683  
2020-10-14 19:50:16.382: [iter 181 : loss : 0.157866, time: 7.672126]
2020-10-14 19:50:17.537: epoch 181:	0.11964913  	0.08280208  	0.06544983  	0.40814948  	0.53763753  	0.62637341  	0.32636538  	0.36286816  	0.38647851  	0.24587530  	0.25696304  	0.26363680  	0.37917596  	0.38622037  	0.38888758  
2020-10-14 19:50:24.745: [iter 182 : loss : 0.206660, time: 7.207599]
2020-10-14 19:50:26.020: epoch 182:	0.11990833  	0.08291870  	0.06548440  	0.40907282  	0.53810382  	0.62666875  	0.32686153  	0.36321118  	0.38673064  	0.24628252  	0.25722426  	0.26384613  	0.37951568  	0.38654754  	0.38921458  
2020-10-14 19:50:33.669: [iter 183 : loss : 0.164508, time: 7.648342]
2020-10-14 19:50:34.796: epoch 183:	0.11990830  	0.08289278  	0.06551033  	0.40886122  	0.53795254  	0.62764758  	0.32641149  	0.36275461  	0.38653547  	0.24576913  	0.25671422  	0.26340896  	0.37861601  	0.38560984  	0.38832650  
2020-10-14 19:50:41.904: [iter 184 : loss : 0.152266, time: 7.107198]
2020-10-14 19:50:43.128: epoch 184:	0.11988242  	0.08299646  	0.06556217  	0.40899083  	0.53912890  	0.62740308  	0.32674515  	0.36336178  	0.38683683  	0.24630125  	0.25734767  	0.26394412  	0.37877613  	0.38573265  	0.38838407  
2020-10-14 19:50:50.618: [iter 185 : loss : 0.151882, time: 7.481435]
2020-10-14 19:50:51.637: epoch 185:	0.11967504  	0.08294462  	0.06553625  	0.40755534  	0.53834766  	0.62775362  	0.32662150  	0.36349294  	0.38719979  	0.24642070  	0.25760007  	0.26424232  	0.37964654  	0.38666034  	0.38937622  
2020-10-14 19:50:58.764: [iter 186 : loss : 0.205201, time: 7.124031]
2020-10-14 19:50:59.914: epoch 186:	0.11957137  	0.08295758  	0.06555353  	0.40738380  	0.53875965  	0.62820536  	0.32617012  	0.36323512  	0.38696182  	0.24592948  	0.25719932  	0.26385400  	0.37906122  	0.38617337  	0.38890052  
2020-10-14 19:51:07.409: [iter 187 : loss : 0.186377, time: 7.494215]
2020-10-14 19:51:08.599: epoch 187:	0.11941583  	0.08297055  	0.06553624  	0.40630394  	0.53857791  	0.62802899  	0.32599801  	0.36334711  	0.38706562  	0.24602729  	0.25743178  	0.26406634  	0.37923029  	0.38644278  	0.38918164  
2020-10-14 19:51:15.934: [iter 188 : loss : 0.135544, time: 7.333454]
2020-10-14 19:51:17.247: epoch 188:	0.11920847  	0.08302240  	0.06546712  	0.40542337  	0.53958046  	0.62759596  	0.32538730  	0.36327961  	0.38662693  	0.24567182  	0.25715965  	0.26372030  	0.37829742  	0.38567838  	0.38832310  
2020-10-14 19:51:24.771: [iter 189 : loss : 0.189979, time: 7.523033]
2020-10-14 19:51:25.916: epoch 189:	0.11936399  	0.08291871  	0.06544119  	0.40659690  	0.53829920  	0.62707710  	0.32585475  	0.36303073  	0.38657045  	0.24583715  	0.25707078  	0.26369184  	0.37900639  	0.38620803  	0.38890585  
2020-10-14 19:51:33.362: [iter 190 : loss : 0.189823, time: 7.445927]
2020-10-14 19:51:34.415: epoch 190:	0.11972690  	0.08298350  	0.06549304  	0.40831804  	0.53897107  	0.62723625  	0.32563010  	0.36240953  	0.38582569  	0.24493121  	0.25596869  	0.26258090  	0.37819660  	0.38522685  	0.38789409  
2020-10-14 19:51:41.884: [iter 191 : loss : 0.119066, time: 7.465537]
2020-10-14 19:51:42.733: epoch 191:	0.11957135  	0.08303535  	0.06553624  	0.40803969  	0.53894645  	0.62740082  	0.32580972  	0.36273620  	0.38620153  	0.24516691  	0.25627679  	0.26289654  	0.37876791  	0.38581678  	0.38847840  
2020-10-14 19:51:48.103: [iter 192 : loss : 0.147761, time: 5.369104]
2020-10-14 19:51:49.064: epoch 192:	0.11962321  	0.08287985  	0.06550169  	0.40925267  	0.53772813  	0.62610614  	0.32683209  	0.36306998  	0.38660249  	0.24607182  	0.25695202  	0.26360968  	0.38054129  	0.38745776  	0.39017767  
2020-10-14 19:51:55.205: [iter 193 : loss : 0.137227, time: 6.137273]
2020-10-14 19:51:56.399: epoch 193:	0.11933809  	0.08291873  	0.06554489  	0.40685385  	0.53770971  	0.62737435  	0.32604659  	0.36299264  	0.38676101  	0.24580334  	0.25697279  	0.26363432  	0.38015836  	0.38725534  	0.39002159  
2020-10-14 19:52:03.727: [iter 194 : loss : 0.170493, time: 7.327824]
2020-10-14 19:52:04.845: epoch 194:	0.11959729  	0.08284095  	0.06552760  	0.40803808  	0.53749788  	0.62636697  	0.32586443  	0.36231151  	0.38597327  	0.24513865  	0.25613123  	0.26281577  	0.37939739  	0.38631716  	0.38905159  
2020-10-14 19:52:12.095: [iter 195 : loss : 0.178618, time: 7.249413]
2020-10-14 19:52:13.251: epoch 195:	0.11972690  	0.08280209  	0.06557944  	0.40838003  	0.53789186  	0.62756068  	0.32583815  	0.36219421  	0.38604525  	0.24510542  	0.25596243  	0.26271152  	0.37884846  	0.38575292  	0.38850987  
2020-10-14 19:52:20.167: [iter 196 : loss : 0.132221, time: 6.915646]
2020-10-14 19:52:21.403: epoch 196:	0.11977874  	0.08291870  	0.06558809  	0.40753752  	0.53936517  	0.62758625  	0.32562467  	0.36256015  	0.38604936  	0.24504131  	0.25604159  	0.26269194  	0.37880716  	0.38587317  	0.38857636  
2020-10-14 19:52:28.701: [iter 197 : loss : 0.162213, time: 7.294644]
2020-10-14 19:52:29.703: epoch 197:	0.11975281  	0.08290572  	0.06566584  	0.40823543  	0.53851789  	0.62750602  	0.32605889  	0.36266306  	0.38637179  	0.24545427  	0.25639543  	0.26312661  	0.37907746  	0.38603768  	0.38876519  
2020-10-14 19:52:36.327: [iter 198 : loss : 0.152804, time: 6.624173]
2020-10-14 19:52:37.623: epoch 198:	0.12006386  	0.08273728  	0.06570905  	0.40951222  	0.53710914  	0.62787539  	0.32596222  	0.36177483  	0.38596404  	0.24499747  	0.25569445  	0.26257962  	0.37812778  	0.38490048  	0.38767305  
2020-10-14 19:52:45.261: [iter 199 : loss : 0.099225, time: 7.632025]
2020-10-14 19:52:46.400: epoch 199:	0.11983058  	0.08278912  	0.06568313  	0.40806180  	0.53799808  	0.62728542  	0.32575798  	0.36225340  	0.38610944  	0.24513082  	0.25605366  	0.26289171  	0.37841234  	0.38534996  	0.38804904  
2020-10-14 19:52:53.730: [iter 200 : loss : 0.134630, time: 7.320848]
2020-10-14 19:52:54.852: epoch 200:	0.12008975  	0.08284094  	0.06564857  	0.40955654  	0.53967315  	0.62694496  	0.32651299  	0.36291400  	0.38630486  	0.24576326  	0.25652945  	0.26327863  	0.37874869  	0.38574177  	0.38832572  
2020-10-14 19:53:02.426: [iter 201 : loss : 0.163176, time: 7.573632]
2020-10-14 19:53:03.709: epoch 201:	0.11985648  	0.08271135  	0.06560536  	0.40832692  	0.53783143  	0.62634832  	0.32532668  	0.36167124  	0.38537771  	0.24468453  	0.25546706  	0.26231879  	0.37734222  	0.38439837  	0.38702929  
2020-10-14 19:53:10.799: [iter 202 : loss : 0.126667, time: 7.084976]
2020-10-14 19:53:12.012: epoch 202:	0.11996014  	0.08265951  	0.06559671  	0.40913263  	0.53784049  	0.62701756  	0.32607630  	0.36218500  	0.38605520  	0.24551326  	0.25627139  	0.26313403  	0.37761134  	0.38457808  	0.38725260  
2020-10-14 19:53:19.780: [iter 203 : loss : 0.148561, time: 7.767012]
2020-10-14 19:53:20.871: epoch 203:	0.12006385  	0.08269837  	0.06555352  	0.40941775  	0.53699076  	0.62675428  	0.32607466  	0.36190066  	0.38582551  	0.24534155  	0.25601640  	0.26284626  	0.37784836  	0.38474914  	0.38744175  
2020-10-14 19:53:27.743: [iter 204 : loss : 0.127743, time: 6.869137]
2020-10-14 19:53:28.983: epoch 204:	0.11996013  	0.08285389  	0.06558808  	0.40934944  	0.53723097  	0.62687141  	0.32580107  	0.36185351  	0.38565922  	0.24492848  	0.25580028  	0.26256219  	0.37774917  	0.38459533  	0.38731503  
2020-10-14 19:53:35.313: [iter 205 : loss : 0.134258, time: 6.329159]
2020-10-14 19:53:36.326: epoch 205:	0.12001199  	0.08282794  	0.06562264  	0.40870905  	0.53789908  	0.62813687  	0.32552224  	0.36183488  	0.38577038  	0.24483146  	0.25572830  	0.26251519  	0.37702301  	0.38400707  	0.38669741  
2020-10-14 19:53:42.566: [iter 206 : loss : 0.124241, time: 6.238720]
2020-10-14 19:53:43.738: epoch 206:	0.12021936  	0.08273723  	0.06557080  	0.40940642  	0.53731567  	0.62773705  	0.32587162  	0.36177424  	0.38578323  	0.24498057  	0.25576755  	0.26256919  	0.37730202  	0.38417789  	0.38690013  
2020-10-14 19:53:51.111: [iter 207 : loss : 0.121558, time: 7.372371]
2020-10-14 19:53:52.282: epoch 207:	0.12008976  	0.08284090  	0.06552760  	0.40949982  	0.53862345  	0.62648594  	0.32605457  	0.36231786  	0.38575959  	0.24514070  	0.25607800  	0.26273066  	0.37794271  	0.38478801  	0.38746902  
2020-10-14 19:53:59.604: [iter 208 : loss : 0.163992, time: 7.318666]
2020-10-14 19:54:00.728: epoch 208:	0.12003792  	0.08303531  	0.06544121  	0.40967342  	0.53914535  	0.62619269  	0.32635450  	0.36281282  	0.38590354  	0.24548882  	0.25648600  	0.26300249  	0.37877762  	0.38565409  	0.38833237  
2020-10-14 19:54:07.953: [iter 209 : loss : 0.168258, time: 7.225263]
2020-10-14 19:54:09.071: epoch 209:	0.11977869  	0.08303531  	0.06541529  	0.40838757  	0.53859997  	0.62653685  	0.32567093  	0.36243916  	0.38566399  	0.24507108  	0.25616759  	0.26268622  	0.37811011  	0.38511357  	0.38783628  
2020-10-14 19:54:16.282: [iter 210 : loss : 0.104440, time: 7.208164]
2020-10-14 19:54:17.542: epoch 210:	0.11975278  	0.08306125  	0.06543257  	0.40834942  	0.53795475  	0.62637109  	0.32596090  	0.36259249  	0.38589260  	0.24536900  	0.25645176  	0.26294956  	0.37893263  	0.38585198  	0.38862184  
2020-10-14 19:54:25.057: [iter 211 : loss : 0.141716, time: 7.513696]
2020-10-14 19:54:26.347: epoch 211:	0.11938992  	0.08313900  	0.06544121  	0.40769449  	0.53871393  	0.62595111  	0.32507682  	0.36218417  	0.38522929  	0.24435620  	0.25564641  	0.26208299  	0.37847629  	0.38548288  	0.38819543  
2020-10-14 19:54:33.680: [iter 212 : loss : 0.106538, time: 7.330201]
2020-10-14 19:54:34.959: epoch 212:	0.11938992  	0.08312602  	0.06543256  	0.40802503  	0.53841501  	0.62495613  	0.32482728  	0.36178043  	0.38471332  	0.24391799  	0.25524485  	0.26167598  	0.37780851  	0.38474748  	0.38742504  
2020-10-14 19:54:42.204: [iter 213 : loss : 0.128600, time: 7.241150]
2020-10-14 19:54:43.494: epoch 213:	0.11962318  	0.08299643  	0.06549303  	0.40791366  	0.53841215  	0.62541449  	0.32469770  	0.36151463  	0.38467982  	0.24391493  	0.25503391  	0.26156119  	0.37695941  	0.38396981  	0.38668141  
2020-10-14 19:54:50.935: [iter 214 : loss : 0.132277, time: 7.441058]
2020-10-14 19:54:52.016: epoch 214:	0.11970094  	0.08293163  	0.06548440  	0.40833387  	0.53725195  	0.62594777  	0.32501924  	0.36140844  	0.38490885  	0.24420275  	0.25518319  	0.26175174  	0.37758222  	0.38446054  	0.38726512  
2020-10-14 19:54:59.355: [iter 215 : loss : 0.136594, time: 7.338467]
2020-10-14 19:55:00.313: epoch 215:	0.11954544  	0.08307420  	0.06551896  	0.40784454  	0.53884447  	0.62629688  	0.32464755  	0.36164701  	0.38486615  	0.24402653  	0.25518566  	0.26175827  	0.37659690  	0.38358480  	0.38627151  
2020-10-14 19:55:06.938: [iter 216 : loss : 0.098417, time: 6.623827]
2020-10-14 19:55:08.080: epoch 216:	0.12006385  	0.08303529  	0.06547576  	0.41002861  	0.53839540  	0.62507415  	0.32552391  	0.36167160  	0.38471508  	0.24453962  	0.25532183  	0.26187202  	0.37689474  	0.38369659  	0.38634598  
2020-10-14 19:55:15.631: [iter 217 : loss : 0.129117, time: 7.550667]
2020-10-14 19:55:16.839: epoch 217:	0.11993425  	0.08306123  	0.06549304  	0.40946764  	0.53807092  	0.62502503  	0.32562307  	0.36194265  	0.38504586  	0.24472667  	0.25561965  	0.26217562  	0.37752083  	0.38441142  	0.38706183  
2020-10-14 19:55:23.845: [iter 218 : loss : 0.119105, time: 7.005498]
2020-10-14 19:55:24.727: epoch 218:	0.12037489  	0.08308715  	0.06551896  	0.41014600  	0.53790146  	0.62594438  	0.32600591  	0.36187521  	0.38517991  	0.24504985  	0.25565973  	0.26224032  	0.37723249  	0.38408029  	0.38674960  
2020-10-14 19:55:30.958: [iter 219 : loss : 0.111565, time: 6.225759]
2020-10-14 19:55:31.979: epoch 219:	0.12032304  	0.08312606  	0.06541529  	0.41076115  	0.53788495  	0.62459284  	0.32568839  	0.36144251  	0.38441861  	0.24446192  	0.25511637  	0.26157758  	0.37687379  	0.38366145  	0.38628125  
2020-10-14 19:55:38.758: [iter 220 : loss : 0.132098, time: 6.779120]
2020-10-14 19:55:39.750: epoch 220:	0.12055634  	0.08307423  	0.06546711  	0.41120252  	0.53809065  	0.62494093  	0.32638487  	0.36192697  	0.38500732  	0.24509114  	0.25562054  	0.26215574  	0.37823763  	0.38489276  	0.38750166  
2020-10-14 19:55:45.997: [iter 221 : loss : 0.113969, time: 6.247255]
2020-10-14 19:55:46.849: epoch 221:	0.12029714  	0.08310014  	0.06548441  	0.41064078  	0.53826606  	0.62597084  	0.32599300  	0.36187938  	0.38507593  	0.24500145  	0.25565013  	0.26222894  	0.37716770  	0.38393417  	0.38656947  
2020-10-14 19:55:52.570: [iter 222 : loss : 0.101386, time: 5.720574]
2020-10-14 19:55:53.720: epoch 222:	0.12024532  	0.08295760  	0.06546714  	0.41084456  	0.53697640  	0.62578362  	0.32599089  	0.36151561  	0.38502538  	0.24505143  	0.25556979  	0.26226091  	0.37681103  	0.38353848  	0.38621965  
2020-10-14 19:55:59.793: [iter 223 : loss : 0.134043, time: 6.071380]
2020-10-14 19:56:00.862: epoch 223:	0.12027127  	0.08291872  	0.06544986  	0.41126475  	0.53736055  	0.62572968  	0.32577354  	0.36125901  	0.38471371  	0.24464798  	0.25519726  	0.26188228  	0.37605488  	0.38285622  	0.38548782  
2020-10-14 19:56:06.983: [iter 224 : loss : 0.081356, time: 6.120480]
2020-10-14 19:56:07.938: epoch 224:	0.12029716  	0.08293167  	0.06538936  	0.41049352  	0.53766030  	0.62521195  	0.32526237  	0.36096096  	0.38417414  	0.24410158  	0.25462708  	0.26122829  	0.37612480  	0.38298512  	0.38560385  
2020-10-14 19:56:14.603: [iter 225 : loss : 0.117913, time: 6.663642]
2020-10-14 19:56:15.737: epoch 225:	0.12029716  	0.08290577  	0.06546711  	0.41079685  	0.53768057  	0.62558365  	0.32551071  	0.36112326  	0.38447127  	0.24417578  	0.25474378  	0.26142183  	0.37663212  	0.38339522  	0.38599384  
2020-10-14 19:56:22.972: [iter 226 : loss : 0.100109, time: 7.234348]
2020-10-14 19:56:24.115: epoch 226:	0.11996021  	0.08293169  	0.06550170  	0.40981302  	0.53749168  	0.62556422  	0.32528147  	0.36126080  	0.38462570  	0.24427284  	0.25502726  	0.26170585  	0.37654313  	0.38335177  	0.38599807  
2020-10-14 19:56:31.463: [iter 227 : loss : 0.098708, time: 7.347795]
2020-10-14 19:56:32.361: epoch 227:	0.12024533  	0.08303535  	0.06542393  	0.41020349  	0.53794038  	0.62457383  	0.32585195  	0.36177519  	0.38477036  	0.24480249  	0.25549096  	0.26209623  	0.37718487  	0.38407144  	0.38662443  
2020-10-14 19:56:39.292: [iter 228 : loss : 0.145512, time: 6.929375]
2020-10-14 19:56:40.552: epoch 228:	0.12055635  	0.08299648  	0.06532025  	0.41099375  	0.53863806  	0.62409431  	0.32646534  	0.36217609  	0.38487306  	0.24539641  	0.25593382  	0.26246333  	0.37750426  	0.38445824  	0.38694307  
2020-10-14 19:56:48.167: [iter 229 : loss : 0.106279, time: 7.614607]
2020-10-14 19:56:49.224: epoch 229:	0.12053042  	0.08297057  	0.06547576  	0.41093689  	0.53753573  	0.62505370  	0.32652608  	0.36198017  	0.38523379  	0.24536252  	0.25584397  	0.26249462  	0.37785691  	0.38476804  	0.38733432  
2020-10-14 19:56:56.704: [iter 230 : loss : 0.123706, time: 7.479937]
2020-10-14 19:56:57.877: epoch 230:	0.12047857  	0.08308718  	0.06541528  	0.41100302  	0.53797084  	0.62426335  	0.32656336  	0.36219972  	0.38513160  	0.24550317  	0.25607413  	0.26259384  	0.37750983  	0.38443050  	0.38697618  
2020-10-14 19:57:05.576: [iter 231 : loss : 0.103061, time: 7.698707]
2020-10-14 19:57:06.679: epoch 231:	0.12019345  	0.08321679  	0.06544118  	0.40975749  	0.53849959  	0.62452936  	0.32598215  	0.36223155  	0.38502607  	0.24517705  	0.25594655  	0.26240578  	0.37710676  	0.38416532  	0.38675502  
2020-10-14 19:57:12.642: [iter 232 : loss : 0.134027, time: 5.962326]
2020-10-14 19:57:13.856: epoch 232:	0.11993423  	0.08321679  	0.06546711  	0.40801704  	0.53824908  	0.62500513  	0.32583851  	0.36252719  	0.38548213  	0.24551144  	0.25643426  	0.26293522  	0.37760574  	0.38477457  	0.38738203  
2020-10-14 19:57:20.612: [iter 233 : loss : 0.116983, time: 6.755081]
2020-10-14 19:57:21.714: epoch 233:	0.11988243  	0.08317791  	0.06542392  	0.40834990  	0.53825337  	0.62414438  	0.32584193  	0.36249572  	0.38526499  	0.24524224  	0.25622648  	0.26270232  	0.37849903  	0.38559660  	0.38818341  
2020-10-14 19:57:29.015: [iter 234 : loss : 0.078152, time: 7.300094]
2020-10-14 19:57:30.259: epoch 234:	0.11998611  	0.08324269  	0.06544120  	0.40903699  	0.53972405  	0.62398201  	0.32606784  	0.36279598  	0.38524228  	0.24534433  	0.25626186  	0.26270309  	0.37845972  	0.38552639  	0.38805619  
2020-10-14 19:57:37.477: [iter 235 : loss : 0.102872, time: 7.215024]
2020-10-14 19:57:38.717: epoch 235:	0.12014161  	0.08341116  	0.06537208  	0.40880221  	0.54058075  	0.62351227  	0.32549852  	0.36249477  	0.38451654  	0.24463509  	0.25562578  	0.26188990  	0.37757719  	0.38478360  	0.38725314  
2020-10-14 19:57:46.052: [iter 236 : loss : 0.104614, time: 7.333779]
2020-10-14 19:57:47.345: epoch 236:	0.11985651  	0.08332046  	0.06533752  	0.40846777  	0.53970605  	0.62260026  	0.32530320  	0.36231288  	0.38437104  	0.24452397  	0.25561428  	0.26189685  	0.37749660  	0.38467884  	0.38720125  
2020-10-14 19:57:54.374: [iter 237 : loss : 0.092670, time: 7.029153]
2020-10-14 19:57:55.580: epoch 237:	0.12001206  	0.08319084  	0.06533752  	0.40897489  	0.53894514  	0.62201536  	0.32546213  	0.36201063  	0.38419113  	0.24456325  	0.25544992  	0.26181197  	0.37744552  	0.38457286  	0.38705233  
2020-10-14 19:58:03.353: [iter 238 : loss : 0.106364, time: 7.771806]
2020-10-14 19:58:04.524: epoch 238:	0.11980472  	0.08319084  	0.06532025  	0.40804282  	0.53879291  	0.62196118  	0.32512844  	0.36195201  	0.38413620  	0.24435882  	0.25535101  	0.26170063  	0.37764826  	0.38482797  	0.38733777  
2020-10-14 19:58:11.919: [iter 239 : loss : 0.099556, time: 7.393689]
2020-10-14 19:58:12.972: epoch 239:	0.11975285  	0.08313901  	0.06526840  	0.40746588  	0.53904271  	0.62088841  	0.32487732  	0.36185223  	0.38378447  	0.24413800  	0.25514409  	0.26144800  	0.37755674  	0.38482416  	0.38726300  
2020-10-14 19:58:20.176: [iter 240 : loss : 0.126778, time: 7.200713]
2020-10-14 19:58:21.328: epoch 240:	0.11977874  	0.08308718  	0.06531157  	0.40733784  	0.53824127  	0.62148011  	0.32480997  	0.36163506  	0.38386479  	0.24412474  	0.25503713  	0.26141831  	0.37740156  	0.38467649  	0.38714439  
2020-10-14 19:58:28.721: [iter 241 : loss : 0.092824, time: 7.384413]
2020-10-14 19:58:29.959: epoch 241:	0.11980467  	0.08311310  	0.06527701  	0.40687144  	0.53913534  	0.62189585  	0.32459861  	0.36166367  	0.38376865  	0.24406214  	0.25500140  	0.26134029  	0.37686023  	0.38417834  	0.38665250  
2020-10-14 19:58:37.315: [iter 242 : loss : 0.110718, time: 7.355437]
2020-10-14 19:58:38.442: epoch 242:	0.11970096  	0.08293167  	0.06532022  	0.40686589  	0.53750002  	0.62196589  	0.32449630  	0.36113843  	0.38373864  	0.24384111  	0.25463688  	0.26113197  	0.37709147  	0.38431224  	0.38685715  
2020-10-14 19:58:46.068: [iter 243 : loss : 0.115962, time: 7.626488]
2020-10-14 19:58:47.159: epoch 243:	0.12001203  	0.08310013  	0.06532022  	0.40857127  	0.53803909  	0.62172782  	0.32517666  	0.36148795  	0.38382947  	0.24424705  	0.25493762  	0.26133192  	0.37745482  	0.38455492  	0.38705468  
2020-10-14 19:58:54.380: [iter 244 : loss : 0.069509, time: 7.220534]
2020-10-14 19:58:55.602: epoch 244:	0.11993425  	0.08307420  	0.06532887  	0.40880635  	0.53714877  	0.62227726  	0.32520485  	0.36131850  	0.38393641  	0.24428511  	0.25502276  	0.26145023  	0.37729248  	0.38427225  	0.38684079  
2020-10-14 19:59:01.879: [iter 245 : loss : 0.096681, time: 6.272904]
2020-10-14 19:59:02.795: epoch 245:	0.11990834  	0.08300939  	0.06527701  	0.40859580  	0.53734010  	0.62204278  	0.32516420  	0.36132246  	0.38384223  	0.24427293  	0.25499353  	0.26140046  	0.37739685  	0.38440886  	0.38695285  
2020-10-14 19:59:08.552: [iter 246 : loss : 0.102541, time: 5.754974]
2020-10-14 19:59:09.688: epoch 246:	0.11975281  	0.08295757  	0.06525110  	0.40796417  	0.53716373  	0.62128979  	0.32447127  	0.36081043  	0.38323042  	0.24357817  	0.25440779  	0.26081240  	0.37651977  	0.38352692  	0.38607642  
2020-10-14 19:59:17.422: [iter 247 : loss : 0.083725, time: 7.734346]
2020-10-14 19:59:18.749: epoch 247:	0.11988241  	0.08286688  	0.06521653  	0.40783221  	0.53638452  	0.62113756  	0.32484001  	0.36096749  	0.38353908  	0.24397683  	0.25473189  	0.26116538  	0.37777779  	0.38475674  	0.38736215  
2020-10-14 19:59:26.053: [iter 248 : loss : 0.079704, time: 7.303432]
2020-10-14 19:59:27.207: epoch 248:	0.12014161  	0.08289280  	0.06525110  	0.40924418  	0.53665972  	0.62112129  	0.32530314  	0.36102548  	0.38359600  	0.24415810  	0.25477564  	0.26123917  	0.37781441  	0.38468850  	0.38727438  
2020-10-14 19:59:34.753: [iter 249 : loss : 0.070984, time: 7.545407]
2020-10-14 19:59:35.877: epoch 249:	0.11990833  	0.08298350  	0.06519927  	0.40828967  	0.53740388  	0.62023699  	0.32477003  	0.36101422  	0.38317806  	0.24383357  	0.25466183  	0.26099622  	0.37719142  	0.38415557  	0.38666478  
2020-10-14 19:59:43.452: [iter 250 : loss : 0.149360, time: 7.573509]
2020-10-14 19:59:44.604: epoch 250:	0.12001204  	0.08285390  	0.06524247  	0.40916535  	0.53705323  	0.62102491  	0.32489085  	0.36073983  	0.38323739  	0.24361683  	0.25432789  	0.26079044  	0.37739024  	0.38417664  	0.38670957  
2020-10-14 19:59:51.751: [iter 251 : loss : 0.085442, time: 7.145849]
2020-10-14 19:59:52.697: epoch 251:	0.11977877  	0.08291870  	0.06531158  	0.40855256  	0.53733057  	0.62257802  	0.32486540  	0.36107662  	0.38381019  	0.24372578  	0.25455940  	0.26107651  	0.37785167  	0.38476786  	0.38730916  
2020-10-14 19:59:59.483: [iter 252 : loss : 0.066659, time: 6.782673]
2020-10-14 20:00:00.629: epoch 252:	0.11983064  	0.08280206  	0.06530295  	0.40880895  	0.53671664  	0.62238103  	0.32537645  	0.36128742  	0.38416132  	0.24426822  	0.25497845  	0.26156488  	0.37874523  	0.38563332  	0.38817737  
2020-10-14 20:00:07.677: [iter 253 : loss : 0.100315, time: 7.047175]
2020-10-14 20:00:08.717: epoch 253:	0.11962326  	0.08280206  	0.06526840  	0.40888488  	0.53711313  	0.62194645  	0.32527524  	0.36140242  	0.38405377  	0.24415174  	0.25504297  	0.26157716  	0.37875485  	0.38562042  	0.38814852  
2020-10-14 20:00:15.975: [iter 254 : loss : 0.110938, time: 7.250208]
2020-10-14 20:00:17.077: epoch 254:	0.11977879  	0.08286686  	0.06525112  	0.40955788  	0.53643435  	0.62187463  	0.32564068  	0.36144978  	0.38413459  	0.24447814  	0.25534844  	0.26180273  	0.37851521  	0.38528275  	0.38787487  
2020-10-14 20:00:24.474: [iter 255 : loss : 0.093829, time: 7.395632]
2020-10-14 20:00:25.834: epoch 255:	0.11962324  	0.08281504  	0.06525975  	0.40952969  	0.53576344  	0.62231845  	0.32543552  	0.36115316  	0.38409698  	0.24417385  	0.25506565  	0.26153836  	0.37895125  	0.38563612  	0.38830590  
2020-10-14 20:00:33.140: [iter 256 : loss : 0.115697, time: 7.304186]
2020-10-14 20:00:34.342: epoch 256:	0.11967512  	0.08277615  	0.06529430  	0.40961766  	0.53582996  	0.62199908  	0.32587284  	0.36154622  	0.38445026  	0.24483934  	0.25568375  	0.26219791  	0.37906930  	0.38568792  	0.38831970  
2020-10-14 20:00:41.623: [iter 257 : loss : 0.068572, time: 7.280307]
2020-10-14 20:00:42.638: epoch 257:	0.11972696  	0.08293165  	0.06525974  	0.40927729  	0.53683019  	0.62146020  	0.32587767  	0.36185583  	0.38434130  	0.24491271  	0.25583860  	0.26221788  	0.37907338  	0.38574749  	0.38831931  
2020-10-14 20:00:49.291: [iter 258 : loss : 0.104264, time: 6.652012]
2020-10-14 20:00:50.139: epoch 258:	0.11949366  	0.08289276  	0.06521656  	0.40868318  	0.53652453  	0.62108123  	0.32543066  	0.36155286  	0.38402018  	0.24441351  	0.25546184  	0.26185575  	0.37892964  	0.38562590  	0.38820279  
2020-10-14 20:00:56.251: [iter 259 : loss : 0.110008, time: 6.111212]
2020-10-14 20:00:57.326: epoch 259:	0.11957142  	0.08298347  	0.06526839  	0.40890506  	0.53759623  	0.62209970  	0.32578808  	0.36209840  	0.38450897  	0.24468789  	0.25576982  	0.26213360  	0.38011113  	0.38677716  	0.38936254  
2020-10-14 20:01:04.780: [iter 260 : loss : 0.103772, time: 7.453383]
2020-10-14 20:01:05.879: epoch 260:	0.11964917  	0.08286685  	0.06534616  	0.40835613  	0.53672075  	0.62255728  	0.32563075  	0.36177278  	0.38456935  	0.24455325  	0.25555673  	0.26203167  	0.38008687  	0.38675463  	0.38934121  
2020-10-14 20:01:13.198: [iter 261 : loss : 0.089382, time: 7.318058]
2020-10-14 20:01:14.438: epoch 261:	0.11985654  	0.08282796  	0.06530294  	0.40987372  	0.53749615  	0.62060952  	0.32600743  	0.36182070  	0.38408303  	0.24464497  	0.25543636  	0.26188233  	0.38021991  	0.38679320  	0.38924006  
2020-10-14 20:01:22.080: [iter 262 : loss : 0.099982, time: 7.641885]
2020-10-14 20:01:23.256: epoch 262:	0.11972696  	0.08286685  	0.06525974  	0.40914622  	0.53817153  	0.62015712  	0.32559147  	0.36174521  	0.38375992  	0.24423315  	0.25517905  	0.26154143  	0.38005415  	0.38658127  	0.38902920  
2020-10-14 20:01:30.549: [iter 263 : loss : 0.081692, time: 7.289659]
2020-10-14 20:01:31.524: epoch 263:	0.11959735  	0.08277614  	0.06527702  	0.40841731  	0.53813869  	0.62040383  	0.32553321  	0.36189216  	0.38402802  	0.24429515  	0.25533706  	0.26175264  	0.38055745  	0.38718134  	0.38962948  
2020-10-14 20:01:38.467: [iter 264 : loss : 0.094820, time: 6.941440]
2020-10-14 20:01:39.675: epoch 264:	0.11944181  	0.08282796  	0.06521655  	0.40667868  	0.53829169  	0.62066597  	0.32501599  	0.36192933  	0.38398799  	0.24421434  	0.25539652  	0.26176447  	0.37990034  	0.38680035  	0.38923010  
2020-10-14 20:01:47.181: [iter 265 : loss : 0.108827, time: 7.505914]
2020-10-14 20:01:48.417: epoch 265:	0.11939000  	0.08285390  	0.06527705  	0.40650740  	0.53725588  	0.62120908  	0.32542363  	0.36223671  	0.38461983  	0.24481699  	0.25597921  	0.26242647  	0.38057235  	0.38745564  	0.38992769  
2020-10-14 20:01:55.673: [iter 266 : loss : 0.075363, time: 7.248674]
2020-10-14 20:01:56.894: epoch 266:	0.11951955  	0.08275023  	0.06522519  	0.40734076  	0.53584552  	0.62150538  	0.32560426  	0.36181271  	0.38456425  	0.24491942  	0.25588864  	0.26241389  	0.38000119  	0.38672376  	0.38929099  
2020-10-14 20:02:04.343: [iter 267 : loss : 0.082760, time: 7.448400]
2020-10-14 20:02:05.576: epoch 267:	0.11928628  	0.08268545  	0.06521656  	0.40586808  	0.53554177  	0.62141794  	0.32498369  	0.36150813  	0.38431770  	0.24450558  	0.25557223  	0.26212001  	0.37988314  	0.38669276  	0.38925081  
2020-10-14 20:02:13.192: [iter 268 : loss : 0.119270, time: 7.610006]
2020-10-14 20:02:14.312: epoch 268:	0.11949365  	0.08245218  	0.06515608  	0.40717146  	0.53469700  	0.62050402  	0.32539126  	0.36119628  	0.38411590  	0.24466293  	0.25539413  	0.26203364  	0.37997425  	0.38664031  	0.38919750  
2020-10-14 20:02:21.859: [iter 269 : loss : 0.065657, time: 7.541106]
2020-10-14 20:02:22.765: epoch 269:	0.11946773  	0.08260770  	0.06522520  	0.40660623  	0.53578389  	0.62128079  	0.32549003  	0.36174372  	0.38455176  	0.24494304  	0.25581983  	0.26239166  	0.38038039  	0.38710874  	0.38967392  
2020-10-14 20:02:29.955: [iter 270 : loss : 0.064203, time: 7.188932]
2020-10-14 20:02:31.099: epoch 270:	0.11954547  	0.08262068  	0.06518198  	0.40657631  	0.53535557  	0.62010145  	0.32604411  	0.36216018  	0.38480714  	0.24558580  	0.25641394  	0.26295590  	0.38128293  	0.38800475  	0.39052683  
2020-10-14 20:02:38.259: [iter 271 : loss : 0.102922, time: 7.159533]
2020-10-14 20:02:39.577: epoch 271:	0.11959733  	0.08264657  	0.06517334  	0.40712434  	0.53606850  	0.62082452  	0.32587647  	0.36199477  	0.38461655  	0.24513668  	0.25600603  	0.26249880  	0.38128695  	0.38793296  	0.39047822  
2020-10-14 20:02:46.188: [iter 272 : loss : 0.059175, time: 6.610368]
2020-10-14 20:02:47.096: epoch 272:	0.11946773  	0.08271135  	0.06513014  	0.40730193  	0.53633010  	0.62023896  	0.32564989  	0.36187816  	0.38427782  	0.24481960  	0.25575691  	0.26219279  	0.38084033  	0.38748410  	0.38998380  
2020-10-14 20:02:54.305: [iter 273 : loss : 0.073608, time: 7.207730]
2020-10-14 20:02:55.574: epoch 273:	0.11923444  	0.08282799  	0.06509557  	0.40540493  	0.53732860  	0.61920691  	0.32534131  	0.36242652  	0.38435417  	0.24496102  	0.25617704  	0.26250762  	0.38110754  	0.38799742  	0.39041376  
2020-10-14 20:03:02.935: [iter 274 : loss : 0.075365, time: 7.360758]
2020-10-14 20:03:04.135: epoch 274:	0.11946774  	0.08277616  	0.06511286  	0.40668306  	0.53666383  	0.61974180  	0.32545322  	0.36196885  	0.38416854  	0.24481989  	0.25583223  	0.26219419  	0.38036612  	0.38713479  	0.38960281  
2020-10-14 20:03:11.783: [iter 275 : loss : 0.102536, time: 7.642005]
2020-10-14 20:03:12.701: epoch 275:	0.11944181  	0.08276321  	0.06514744  	0.40564802  	0.53674287  	0.62081462  	0.32490152  	0.36165911  	0.38405281  	0.24444561  	0.25548375  	0.26188800  	0.37952626  	0.38639197  	0.38887694  
2020-10-14 20:03:19.944: [iter 276 : loss : 0.129367, time: 7.242298]
2020-10-14 20:03:20.998: epoch 276:	0.11926039  	0.08281507  	0.06511287  	0.40559679  	0.53763372  	0.62082350  	0.32478121  	0.36184296  	0.38399619  	0.24436556  	0.25553161  	0.26185873  	0.37965044  	0.38659582  	0.38902995  
2020-10-14 20:03:28.581: [iter 277 : loss : 0.060711, time: 7.581163]
2020-10-14 20:03:29.740: epoch 277:	0.11926037  	0.08294462  	0.06509560  	0.40575752  	0.53830957  	0.62048817  	0.32503110  	0.36229914  	0.38415337  	0.24465735  	0.25590399  	0.26212981  	0.37987685  	0.38685125  	0.38923958  
2020-10-14 20:03:36.848: [iter 278 : loss : 0.119619, time: 7.107874]
2020-10-14 20:03:38.020: epoch 278:	0.11941589  	0.08287984  	0.06506103  	0.40624601  	0.53858852  	0.61971247  	0.32505095  	0.36215031  	0.38380843  	0.24450742  	0.25559536  	0.26183608  	0.37969920  	0.38667774  	0.38899085  
2020-10-14 20:03:45.111: [iter 279 : loss : 0.074521, time: 7.089891]
2020-10-14 20:03:46.153: epoch 279:	0.11941589  	0.08278913  	0.06502648  	0.40608153  	0.53774053  	0.61999083  	0.32504135  	0.36192515  	0.38384235  	0.24455051  	0.25559568  	0.26187328  	0.37976602  	0.38670826  	0.38908264  
2020-10-14 20:03:53.260: [iter 280 : loss : 0.123968, time: 7.106101]
2020-10-14 20:03:54.317: epoch 280:	0.11892341  	0.08268545  	0.06505240  	0.40467909  	0.53621739  	0.62066597  	0.32459557  	0.36167237  	0.38408819  	0.24446467  	0.25566480  	0.26207155  	0.37974384  	0.38676706  	0.38922566  
2020-10-14 20:04:01.628: [iter 281 : loss : 0.100171, time: 7.310847]
2020-10-14 20:04:02.613: epoch 281:	0.11926037  	0.08273728  	0.06501784  	0.40506142  	0.53594935  	0.61946613  	0.32472956  	0.36151952  	0.38371661  	0.24439581  	0.25547248  	0.26180571  	0.38007143  	0.38695067  	0.38941714  
2020-10-14 20:04:09.262: [iter 282 : loss : 0.089190, time: 6.648366]
2020-10-14 20:04:10.440: epoch 282:	0.11923447  	0.08259473  	0.06502646  	0.40554684  	0.53495681  	0.61880028  	0.32464650  	0.36103249  	0.38339713  	0.24421847  	0.25514114  	0.26157826  	0.37951404  	0.38629624  	0.38874841  
2020-10-14 20:04:17.935: [iter 283 : loss : 0.102269, time: 7.493672]
2020-10-14 20:04:19.294: epoch 283:	0.11959736  	0.08259472  	0.06499192  	0.40712330  	0.53603929  	0.61829132  	0.32572243  	0.36182916  	0.38384408  	0.24505538  	0.25579953  	0.26220936  	0.38085008  	0.38758096  	0.38997230  
2020-10-14 20:04:26.180: [iter 284 : loss : 0.054877, time: 6.885837]
2020-10-14 20:04:27.259: epoch 284:	0.11964921  	0.08251698  	0.06492278  	0.40732780  	0.53463191  	0.61747313  	0.32501927  	0.36074793  	0.38287732  	0.24423002  	0.25491783  	0.26134917  	0.37896457  	0.38557959  	0.38799873  
2020-10-14 20:04:33.715: [iter 285 : loss : 0.072272, time: 6.456232]
2020-10-14 20:04:34.686: epoch 285:	0.11970107  	0.08255585  	0.06499191  	0.40746304  	0.53448069  	0.61865437  	0.32475930  	0.36042422  	0.38281944  	0.24396731  	0.25454921  	0.26103476  	0.37823316  	0.38487393  	0.38730004  
2020-10-14 20:04:40.588: [iter 286 : loss : 0.076120, time: 5.900328]
2020-10-14 20:04:41.746: epoch 286:	0.11975289  	0.08260767  	0.06502648  	0.40773499  	0.53528422  	0.61929417  	0.32532090  	0.36110190  	0.38346437  	0.24465428  	0.25529703  	0.26172981  	0.37886864  	0.38549584  	0.38796103  
2020-10-14 20:04:47.811: [iter 287 : loss : 0.091357, time: 6.064758]
2020-10-14 20:04:48.638: epoch 287:	0.11944183  	0.08269840  	0.06501783  	0.40602094  	0.53673255  	0.61865425  	0.32471710  	0.36136913  	0.38325739  	0.24444568  	0.25532970  	0.26167604  	0.37805629  	0.38492545  	0.38729936  
2020-10-14 20:04:54.564: [iter 288 : loss : 0.043737, time: 5.925930]
2020-10-14 20:04:55.604: epoch 288:	0.11933817  	0.08265954  	0.06499190  	0.40618077  	0.53676015  	0.61774373  	0.32489190  	0.36152548  	0.38323203  	0.24457926  	0.25549763  	0.26184770  	0.37858215  	0.38539767  	0.38772166  
2020-10-14 20:05:01.807: [iter 289 : loss : 0.086512, time: 6.202117]
2020-10-14 20:05:02.811: epoch 289:	0.11928630  	0.08254290  	0.06496598  	0.40584067  	0.53521556  	0.61793101  	0.32459217  	0.36096254  	0.38303995  	0.24429943  	0.25513425  	0.26155999  	0.37823412  	0.38505626  	0.38748360  
2020-10-14 20:05:08.848: [iter 290 : loss : 0.062142, time: 6.033966]
2020-10-14 20:05:09.974: epoch 290:	0.11951960  	0.08254289  	0.06494869  	0.40708905  	0.53459966  	0.61812299  	0.32482749  	0.36064240  	0.38287535  	0.24427426  	0.25495446  	0.26135805  	0.37789008  	0.38455471  	0.38701645  
2020-10-14 20:05:17.340: [iter 291 : loss : 0.069976, time: 7.364297]
2020-10-14 20:05:18.672: epoch 291:	0.11967514  	0.08256881  	0.06492276  	0.40717784  	0.53588825  	0.61752790  	0.32516029  	0.36117202  	0.38301989  	0.24464872  	0.25532019  	0.26162836  	0.37841418  	0.38515037  	0.38754800  
2020-10-14 20:05:25.883: [iter 292 : loss : 0.069432, time: 7.209499]
2020-10-14 20:05:27.115: epoch 292:	0.11990841  	0.08245217  	0.06487957  	0.40817258  	0.53482479  	0.61773193  	0.32560062  	0.36095387  	0.38309738  	0.24487644  	0.25535327  	0.26173100  	0.37854263  	0.38513532  	0.38758251  
2020-10-14 20:05:34.396: [iter 293 : loss : 0.082126, time: 7.277770]
2020-10-14 20:05:35.421: epoch 293:	0.11990841  	0.08242627  	0.06482774  	0.40733895  	0.53438282  	0.61704350  	0.32498351  	0.36041230  	0.38246176  	0.24429202  	0.25476161  	0.26113549  	0.37768057  	0.38430199  	0.38673097  
2020-10-14 20:05:42.222: [iter 294 : loss : 0.075475, time: 6.800603]
2020-10-14 20:05:43.505: epoch 294:	0.11985657  	0.08236146  	0.06481909  	0.40727410  	0.53412575  	0.61710948  	0.32571658  	0.36106485  	0.38321978  	0.24525237  	0.25564641  	0.26205072  	0.37928045  	0.38589522  	0.38831714  
2020-10-14 20:05:50.895: [iter 295 : loss : 0.094202, time: 7.389426]
2020-10-14 20:05:51.932: epoch 295:	0.11983065  	0.08230963  	0.06486228  	0.40745687  	0.53343159  	0.61724365  	0.32513157  	0.36025381  	0.38265893  	0.24457797  	0.25488293  	0.26136604  	0.37811154  	0.38466859  	0.38714290  
2020-10-14 20:05:59.367: [iter 296 : loss : 0.058355, time: 7.432606]
2020-10-14 20:06:00.700: epoch 296:	0.11977880  	0.08224482  	0.06481045  	0.40783599  	0.53322655  	0.61729193  	0.32504731  	0.36007407  	0.38251868  	0.24440481  	0.25467917  	0.26119059  	0.37766078  	0.38422239  	0.38672012  
2020-10-14 20:06:08.073: [iter 297 : loss : 0.059402, time: 7.371845]
2020-10-14 20:06:09.329: epoch 297:	0.11970107  	0.08228371  	0.06476724  	0.40740085  	0.53378451  	0.61714500  	0.32440397  	0.35965794  	0.38190830  	0.24370252  	0.25401801  	0.26048851  	0.37701058  	0.38363117  	0.38606977  
2020-10-14 20:06:15.818: [iter 298 : loss : 0.029430, time: 6.488825]
2020-10-14 20:06:16.890: epoch 298:	0.11941593  	0.08218001  	0.06484501  	0.40654019  	0.53237593  	0.61807823  	0.32374331  	0.35900965  	0.38182449  	0.24309795  	0.25355375  	0.26014921  	0.37631643  	0.38292128  	0.38546365  
2020-10-14 20:06:23.016: [iter 299 : loss : 0.083910, time: 6.125164]
2020-10-14 20:06:24.083: epoch 299:	0.11957144  	0.08214113  	0.06481908  	0.40750563  	0.53104353  	0.61811423  	0.32424217  	0.35894334  	0.38200989  	0.24354403  	0.25387508  	0.26049367  	0.37623405  	0.38269794  	0.38527164  
2020-10-14 20:06:31.270: [iter 300 : loss : 0.094325, time: 7.186295]
2020-10-14 20:06:32.333: epoch 300:	0.11944181  	0.08214114  	0.06481045  	0.40557435  	0.53070861  	0.61749101  	0.32368600  	0.35881680  	0.38181889  	0.24340558  	0.25381017  	0.26041657  	0.37591141  	0.38255468  	0.38513970  
